<?xml version="1.0" standalone="no"?>
<!DOCTYPE svg PUBLIC "-//W3C//DTD SVG 1.1//EN" "http://www.w3.org/Graphics/SVG/1.1/DTD/svg11.dtd" >
<svg>
<metadata>
Created by FontForge 20090622 at Mon Dec 28 06:12:34 2015
 By deploy user
Copyright (c) 2010-2011 by tyPoland Lukasz Dziedzic with Reserved Font Name "Lato". Licensed under the SIL Open Font License, Version 1.1.
</metadata>
<defs>
<font id="Lato-Bold" horiz-adv-x="1187" >
  <font-face 
    font-family="Lato"
    font-weight="700"
    font-stretch="normal"
    units-per-em="2048"
    panose-1="2 15 8 2 2 2 4 3 2 3"
    ascent="1649"
    descent="-399"
    x-height="1051"
    cap-height="1481"
    bbox="-100 -370 2131 1919"
    underline-thickness="163"
    underline-position="-41"
    unicode-range="U+000D-U+FB02"
  />
<missing-glyph horiz-adv-x="748" 
d="M68 0v1365h544v-1365h-544zM136 68h408v1229h-408v-1229z" />
    <glyph glyph-name="uniFB01" unicode="fi" horiz-adv-x="1230" 
d="M24 938v103h156v34q0 96 32 178.5t96.5 143t162.5 95t232 34.5q43 0 88.5 -4.5t77.5 -15.5l-8 -131q-2 -24 -25.5 -28.5t-58.5 -4.5q-99 0 -166 -17t-108.5 -51.5t-59.5 -86t-18 -120.5v-26h651v-1041h-253v861h-390v-861h-253v860l-91 14q-30 5 -47.5 20.5t-17.5 43.5z
" />
    <glyph glyph-name="uniFB02" unicode="fl" horiz-adv-x="1263" 
d="M24 938v103h156v44q0 84 26 161t80.5 136t137.5 94t197 35q93 0 176.5 -6t166.5 -6h142v-1499h-252v1323q-54 2 -106 5t-88 3q-115 0 -175 -64t-60 -182v-44h249v-180h-241v-861h-253v860l-91 14q-30 5 -47.5 20.5t-17.5 43.5z" />
    <glyph glyph-name=".notdef" horiz-adv-x="748" 
d="M68 0v1365h544v-1365h-544zM136 68h408v1229h-408v-1229z" />
    <glyph glyph-name="glyph1" horiz-adv-x="0" 
 />
    <glyph glyph-name="uni000D" unicode="&#xd;" horiz-adv-x="0" 
 />
    <glyph glyph-name="glyph3" horiz-adv-x="0" 
 />
    <glyph glyph-name="glyph3" horiz-adv-x="0" 
 />
    <glyph glyph-name="space" unicode=" " horiz-adv-x="395" 
 />
    <glyph glyph-name="exclam" unicode="!" horiz-adv-x="738" 
d="M214 139q0 32 12 60.5t33 49t49.5 33t61.5 12.5q32 0 60.5 -12.5t49 -33t32.5 -49t12 -60.5q0 -33 -12 -61t-32.5 -48.5t-49.5 -32t-60 -11.5q-33 0 -61.5 11.5t-49.5 32t-33 48.5t-12 61zM253 895v586h239v-586q0 -93 -9.5 -182.5t-24.5 -190.5h-171q-15 100 -24.5 190
t-9.5 183z" />
    <glyph glyph-name="quotedbl" unicode="&#x22;" horiz-adv-x="864" 
d="M134 1186v295h220v-295l-23 -160q-7 -45 -26 -69t-62 -24q-37 0 -58.5 24t-27.5 69zM511 1186v295h220v-295l-23 -160q-7 -45 -26 -69t-62 -24q-37 0 -58.5 24t-27.5 69z" />
    <glyph glyph-name="numbersign" unicode="#" 
d="M40 486q0 14 3 33l13 81h195l53 283h-219l19 105q7 39 32 58t80 19h114l63 330q8 41 38 63.5t70 22.5h114l-77 -416h208l79 416h113q36 0 58.5 -20.5t22.5 -52.5q0 -10 -1 -15l-64 -328h208l-19 -106q-7 -39 -32.5 -57.5t-79.5 -18.5h-102l-52 -283h145q33 0 50 -16
t17 -54q0 -14 -4 -32l-12 -80h-222l-79 -418h-116q-31 0 -53 24.5t-22 60.5q0 5 0.5 9.5t1.5 9.5l60 314h-210l-59 -326q-9 -49 -42 -70.5t-73 -21.5h-112l78 418h-117q-33 0 -50.5 16t-17.5 52zM459 600h210l52 283h-209z" />
    <glyph glyph-name="dollar" unicode="$" 
d="M71 178l77 116q10 15 27.5 25t35.5 10q23 0 48.5 -16l58 -37.5t74.5 -43t100 -31.5l38 458q-73 20 -144 48t-127.5 73.5t-91.5 115.5t-35 174q0 78 31.5 152t90.5 132.5t146 96.5t200 43l11 129q2 25 20.5 44.5t48.5 19.5h93l-17 -202q109 -17 187.5 -61.5t136.5 -99.5
l-61 -93q-14 -20 -28.5 -30.5t-35.5 -10.5q-15 0 -36 9.5t-48 23.5t-60 28.5t-73 23.5l-36 -424q74 -23 146.5 -50t130 -70t93.5 -107t36 -160q0 -95 -32 -178.5t-92.5 -147.5t-150 -104t-203.5 -48l-13 -151q-2 -24 -20 -43.5t-48 -19.5h-93l18 219q-120 16 -225 65
t-178 122zM371 1095q0 -39 13 -69t37 -53t57 -41t72 -32l32 379q-56 -7 -96.5 -24t-66 -41.5t-37 -54.5t-11.5 -64zM648 198q109 14 164.5 73t55.5 154q0 39 -13.5 68t-38.5 51.5t-59 39t-74 29.5z" />
    <glyph glyph-name="percent" unicode="%" horiz-adv-x="1644" 
d="M62 1122q0 86 26 156t71.5 118t108 74t135.5 26q74 0 137 -26t109 -74t71.5 -118t25.5 -156q0 -84 -28 -151.5t-75 -115t-109.5 -73t-130.5 -25.5q-74 0 -136 25.5t-107.5 73t-71.5 115t-26 151.5zM139 0l1100 1441q12 15 30.5 27.5t51.5 12.5h183l-1100 -1443
q-12 -16 -31 -27t-45 -11h-189zM259 1122q0 -57 11 -95.5t30 -62t46 -33.5t57 -10q31 0 58 10t47 33.5t31.5 62t11.5 95.5q0 59 -11.5 99.5t-31.5 65t-47 35t-58 10.5t-57.5 -10.5t-45.5 -35t-30 -64.5t-11 -100zM898 348q0 86 25.5 155.5t71 118t108 74.5t136.5 26t137 -26
t109 -74.5t71.5 -118t25.5 -155.5q0 -84 -28 -151.5t-75 -115t-109.5 -73.5t-130.5 -26q-74 0 -136.5 26t-108 73.5t-71 115t-25.5 151.5zM1095 348q0 -57 11 -96t30 -62.5t45.5 -34t57.5 -10.5t58 10.5t47 34t32 62.5t12 96q0 59 -12 99t-32 65t-47 35.5t-58 10.5
t-57.5 -10.5t-45.5 -35.5t-30 -64.5t-11 -99.5z" />
    <glyph glyph-name="ampersand" unicode="&#x26;" horiz-adv-x="1462" 
d="M66 408q0 69 22.5 130.5t62 115t94.5 96.5t121 73q-54 77 -79.5 150.5t-25.5 145.5q0 77 28 146t82 120.5t132 81.5t176 30q90 0 161 -27.5t122 -73.5t80 -105.5t34 -123.5l-161 -33q-3 -1 -6.5 -1h-6.5q-17 0 -31 9.5t-22 29.5q-9 27 -23.5 51t-35 42t-48 29t-63.5 11
q-43 0 -77 -15t-57.5 -40t-35.5 -58.5t-12 -70.5q0 -31 6.5 -59.5t21 -57t37.5 -59t56 -64.5l394 -409q34 65 54 136.5t27 145.5q2 24 15 38t37 14h159q-1 -135 -39 -258t-109 -226l310 -322h-247q-19 0 -34.5 2t-28.5 7.5t-25.5 15t-25.5 23.5l-103 106q-98 -80 -218 -125
t-261 -45q-86 0 -168 29t-146.5 84.5t-103.5 133.5t-39 177zM323 428q0 -56 19 -101t53 -76.5t78.5 -48.5t94.5 -17q90 0 164.5 28.5t135.5 78.5l-389 399q-82 -53 -119 -119.5t-37 -143.5z" />
    <glyph glyph-name="quotesingle" unicode="'" horiz-adv-x="487" 
d="M134 1186v295h220v-295l-23 -160q-7 -45 -26 -69t-62 -24q-37 0 -58.5 24t-27.5 69z" />
    <glyph glyph-name="parenleft" unicode="(" horiz-adv-x="614" 
d="M109 642q0 128 15.5 251.5t49.5 243t87 237t129 234.5l113 -68q14 -8 24.5 -21t10.5 -32t-14 -46q-94 -179 -145 -383.5t-51 -415.5t51 -414.5t146 -383.5q7 -13 10 -24t3 -21q0 -20 -10.5 -33t-24.5 -21l-113 -69q-76 117 -129 235t-87 237.5t-49.5 242.5t-15.5 251z
" />
    <glyph glyph-name="parenright" unicode=")" horiz-adv-x="614" 
d="M77 -201q0 9 2.5 20.5t9.5 24.5q95 179 146.5 383t51.5 415t-51.5 415.5t-145.5 383.5q-13 27 -13 46t10 32t25 21l112 68q76 -117 129.5 -234.5t87 -237t49.5 -243t16 -251.5t-16 -251t-49.5 -242.5t-87 -237.5t-129.5 -235l-112 69q-14 8 -24.5 21t-10.5 33z" />
    <glyph glyph-name="asterisk" unicode="*" horiz-adv-x="819" 
d="M78 1081l163 95q18 11 36 18t37 10q-19 2 -37 10.5t-36 19.5l-163 95l59 103l163 -97q17 -11 33 -23t27 -26q-7 17 -9.5 36.5t-2.5 40.5v189h121v-187q0 -22 -2.5 -41.5t-9.5 -37.5q11 14 26.5 26t33.5 23l162 95l60 -103l-162 -93q-18 -11 -36.5 -19t-37.5 -11
q35 -6 74 -28l162 -96l-59 -102l-163 95q-18 11 -33.5 22.5t-27.5 25.5q13 -33 13 -75v-189h-121v187q0 20 2.5 40t8.5 37q-11 -14 -26.5 -25.5t-32.5 -22.5l-162 -94z" />
    <glyph glyph-name="plus" unicode="+" 
d="M93 594v187h396v420h205v-420h399v-187h-399v-422h-205v422h-396z" />
    <glyph glyph-name="comma" unicode="," horiz-adv-x="460" 
d="M82 156q0 29 10.5 53.5t30 43.5t47.5 30t60 11q39 0 68 -14t48.5 -38t28.5 -55t9 -66q0 -49 -15 -103.5t-43.5 -108.5t-70.5 -105.5t-96 -94.5l-44 40q-18 15 -19 38q0 8 6 18.5t14 18.5l27.5 30t33 41t30 50t19.5 58q-32 0 -58.5 12t-45.5 32.5t-29.5 48t-10.5 60.5z
" />
    <glyph glyph-name="hyphen" unicode="-" horiz-adv-x="735" 
d="M102 513v211h531v-211h-531z" />
    <glyph glyph-name="period" unicode="." horiz-adv-x="460" 
d="M75 139q0 32 11.5 60.5t32.5 49t50 33t61 12.5t60.5 -12.5t49 -33t33 -49t12.5 -60.5q0 -33 -12.5 -61t-33 -48.5t-49 -32t-60.5 -11.5q-33 0 -61.5 11.5t-49.5 32t-32.5 48.5t-11.5 61z" />
    <glyph glyph-name="slash" unicode="/" horiz-adv-x="792" 
d="M-18 -97l598 1530q17 43 50 66t79 23h107l-593 -1525q-9 -24 -23.5 -41t-33 -29t-38.5 -18t-40 -6h-106z" />
    <glyph glyph-name="zero" unicode="0" 
d="M51 740q0 195 41 337.5t114 235.5t171.5 138.5t214.5 45.5t215.5 -45.5t173 -138.5t115 -235.5t41.5 -337.5q0 -194 -41.5 -336.5t-115 -235.5t-173 -138.5t-215.5 -45.5t-214.5 45.5t-171.5 138.5t-114 236t-41 336zM312 740q0 -161 23 -266t62 -167.5t90 -87.5t105 -25
q55 0 106.5 25t90.5 87.5t63 167.5t24 266t-24 266.5t-63 168t-90.5 87.5t-106.5 25q-54 0 -105 -25t-90 -87.5t-62 -168t-23 -266.5z" />
    <glyph glyph-name="one" unicode="1" 
d="M169 1099l452 384h207v-1294h267v-189h-820v189h300v864q0 50 4 105l-213 -178q-13 -11 -27 -15t-28 -4q-20 0 -37 8.5t-25 19.5z" />
    <glyph glyph-name="two" unicode="2" 
d="M86 0v84q0 26 11 53.5t34 50.5l450 451q56 57 100.5 109.5t74.5 103.5t46 104t16 111q0 53 -15.5 93.5t-44 68t-68 41.5t-88.5 14q-91 0 -150 -46t-82 -124q-11 -39 -34 -56t-57 -17q-15 0 -34 3l-133 24q15 106 59 186.5t110 134.5t151.5 81t183.5 27q102 0 187.5 -30
t146 -85.5t94 -133.5t33.5 -173q0 -82 -24 -151.5t-64.5 -133t-94.5 -123l-114 -120.5l-334 -341q49 14 96.5 22t90.5 8h380q41 0 65 -23.5t24 -60.5v-152h-1016z" />
    <glyph glyph-name="three" unicode="3" 
d="M92 376l112 46q29 12 58 12q27 0 48 -11t32 -33q18 -36 40 -70.5t53 -62t72.5 -44t98.5 -16.5q65 0 113 21t80 54.5t48 75t16 83.5q0 53 -11 96.5t-47 74.5t-103 48.5t-180 17.5v180q93 1 154.5 17.5t98 45.5t51 70t14.5 90q0 105 -57.5 159t-156.5 54
q-90 0 -149.5 -47.5t-83.5 -122.5q-12 -39 -33.5 -56t-56.5 -17q-16 0 -35 3l-133 24q15 106 59.5 186.5t110.5 134.5t151.5 81t183.5 27q102 0 184.5 -29t141 -81t89.5 -121.5t31 -150.5q0 -71 -15.5 -124.5t-46 -93.5t-74 -67.5t-98.5 -46.5q133 -42 198.5 -128t65.5 -216
q0 -111 -41 -195.5t-110.5 -142.5t-161 -87.5t-194.5 -29.5q-112 0 -194.5 25.5t-144 75.5t-104.5 123t-74 168z" />
    <glyph glyph-name="four" unicode="4" 
d="M24 545l701 937h240v-924h186v-146q0 -20 -13.5 -35.5t-38.5 -15.5h-134v-361h-222v361h-624q-26 0 -45.5 16t-24.5 40zM293 558h450v484q0 33 2.5 71t7.5 79z" />
    <glyph glyph-name="five" unicode="5" 
d="M78 158l78 107q25 35 65 35q26 0 52 -16.5t61 -36t81 -35.5t111 -16q70 0 123 22.5t88.5 63t53.5 96t18 121.5q0 121 -70 189t-207 68q-108 0 -216 -39l-157 45l123 719h731v-108q0 -54 -34.5 -88t-114.5 -34h-407l-54 -309q100 20 184 21q117 0 205.5 -35t148.5 -96.5
t91 -144t31 -177.5q0 -118 -41.5 -215t-115 -166.5t-174.5 -107t-220 -37.5q-70 0 -132.5 14t-117 38t-101 55.5t-83.5 66.5z" />
    <glyph glyph-name="six" unicode="6" 
d="M89 504q0 104 42.5 214t131.5 229l353 474q18 25 54 42.5t82 17.5h225l-439 -538l-27 -32.5l-26 -31.5q43 22 93 34t108 12q84 0 163.5 -28t140 -83.5t97 -138.5t36.5 -194q0 -103 -37.5 -193.5t-106.5 -158.5t-165.5 -106.5t-213.5 -38.5q-119 0 -213 37.5t-160.5 106
t-102 164t-35.5 212.5zM332 465q0 -61 17 -112t50 -87t82 -56t114 -20q60 0 111 20.5t87 57.5t56.5 86.5t20.5 108.5q0 63 -19.5 114t-55 86t-86 53.5t-110.5 18.5t-109.5 -20.5t-84.5 -56.5t-54 -86t-19 -107z" />
    <glyph glyph-name="seven" unicode="7" 
d="M98 1310v171h1024v-110q0 -49 -10.5 -79t-20.5 -51l-561 -1155q-17 -36 -48.5 -61t-86.5 -25h-183l573 1132q36 70 80 119h-708q-24 0 -41.5 17.5t-17.5 41.5z" />
    <glyph glyph-name="eight" unicode="8" 
d="M80 416q0 131 64.5 221.5t200.5 134.5q-109 45 -162.5 128t-53.5 200q0 84 34.5 156.5t96 126.5t147 84t187.5 30t187.5 -30t147 -84t96 -126.5t34.5 -156.5q0 -117 -54.5 -200t-161.5 -128q136 -44 200.5 -134.5t64.5 -221.5q0 -98 -37.5 -178t-105 -136.5t-162 -87
t-209.5 -30.5t-209.5 30.5t-162 87t-105 136t-37.5 178.5zM340 420q0 -51 16.5 -95t48.5 -76t79.5 -50t109.5 -18t109.5 18t79.5 50t48.5 76t16.5 95q0 122 -67.5 184.5t-186.5 62.5t-186.5 -62.5t-67.5 -184.5zM376 1096q0 -44 10.5 -85.5t36.5 -74t68 -52t103 -19.5
t103 19.5t68 52t36.5 74t10.5 85.5q0 42 -13.5 79.5t-40 67t-67.5 47t-97 17.5t-97 -17.5t-68.5 -47t-40 -67t-12.5 -79.5z" />
    <glyph glyph-name="nine" unicode="9" 
d="M133 1017q0 99 37 186t103.5 152.5t159.5 103.5t206 38q114 0 204.5 -36t154.5 -100.5t98 -154.5t34 -197q0 -69 -11.5 -130.5t-33.5 -118.5t-53 -110.5t-68 -107.5l-339 -484q-17 -25 -51.5 -41.5t-78.5 -16.5h-233l460 574l32.5 42.5l29.5 40.5q-51 -33 -112 -49.5
t-129 -16.5q-77 0 -151 26.5t-131.5 80.5t-92.5 133t-35 186zM386 1036q0 -124 64 -189t182 -65q61 0 108.5 19.5t80.5 53.5t50 80t17 99q0 60 -18.5 108t-52.5 80.5t-80.5 50t-101.5 17.5q-57 0 -103.5 -19t-78.5 -52.5t-49.5 -80t-17.5 -102.5z" />
    <glyph glyph-name="colon" unicode=":" horiz-adv-x="542" 
d="M116 139q0 32 11.5 60.5t32.5 49t50 33t61 12.5t60.5 -12.5t49 -33t33 -49t12.5 -60.5q0 -33 -12.5 -61t-33 -48.5t-49 -32t-60.5 -11.5q-33 0 -61.5 11.5t-49.5 32t-32.5 48.5t-11.5 61zM116 869q0 32 11.5 60.5t32.5 49t50 33t61 12.5t60.5 -12.5t49 -33t33 -49
t12.5 -60.5q0 -33 -12.5 -61t-33 -48.5t-49 -32t-60.5 -11.5q-33 0 -61.5 11.5t-49.5 32t-32.5 48.5t-11.5 61z" />
    <glyph glyph-name="semicolon" unicode=";" horiz-adv-x="542" 
d="M116 869q0 32 11.5 60.5t32.5 49t50 33t61 12.5t60.5 -12.5t49 -33t33 -49t12.5 -60.5q0 -33 -12.5 -61t-33 -48.5t-49 -32t-60.5 -11.5q-33 0 -61.5 11.5t-49.5 32t-32.5 48.5t-11.5 61zM123 156q0 29 10.5 53.5t30 43.5t47.5 30t60 11q39 0 68 -14t48.5 -38t28.5 -55
t9 -66q0 -49 -15 -103.5t-43.5 -108.5t-70.5 -105.5t-96 -94.5l-44 40q-18 15 -19 38q0 8 5.5 18.5t14.5 18.5l27.5 30t32.5 41t30 50t20 58q-32 0 -58.5 12t-45.5 32.5t-29.5 48t-10.5 60.5z" />
    <glyph glyph-name="less" unicode="&#x3c;" 
d="M142 639v102l811 423v-180q0 -20 -10 -37t-34 -29l-371 -191q-24 -12 -50 -21t-56 -16q30 -7 56 -15.5t50 -21.5l371 -191q24 -12 34 -29t10 -38v-180z" />
    <glyph glyph-name="equal" unicode="=" 
d="M139 414v188h908v-188h-908zM139 775v188h908v-188h-908z" />
    <glyph glyph-name="greater" unicode="&#x3e;" 
d="M234 215v180q0 20 10.5 37.5t34.5 29.5l371 191q45 23 106 37q-30 7 -56 16t-50 21l-371 191q-24 12 -34.5 29t-10.5 37v180l812 -423v-102z" />
    <glyph glyph-name="question" unicode="?" horiz-adv-x="861" 
d="M38 1347q35 31 76.5 58.5t89.5 48t104.5 32t121.5 11.5q89 0 162.5 -24.5t125.5 -70t80.5 -110t28.5 -144.5q0 -78 -22.5 -135t-56.5 -99t-74 -72.5l-76 -57.5t-62 -53t-31 -59l-24 -150h-173l-17 167q-1 5 -1 8.5v9.5q0 45 22.5 78t56 62.5t72.5 57t73 59.5t56.5 73
t22.5 97q0 37 -14 66t-38.5 50t-59 32t-73.5 11q-58 0 -99 -12.5t-69 -28.5t-47.5 -29t-34.5 -13q-37 0 -54 31zM231 139q0 32 12 60.5t33 49t49.5 33t61.5 12.5q32 0 60.5 -12.5t49 -33t33 -49t12.5 -60.5q0 -33 -12.5 -61t-33 -48.5t-49 -32t-60.5 -11.5q-33 0 -61.5 11.5
t-49.5 32t-33 48.5t-12 61z" />
    <glyph glyph-name="at" unicode="@" horiz-adv-x="1684" 
d="M69 597q0 110 28 213t80 194t126 166.5t164 130t195 84.5t220 30q145 0 278.5 -48.5t236.5 -139t164.5 -221t61.5 -294.5q0 -110 -32 -205.5t-90 -166.5t-136.5 -111.5t-170.5 -40.5q-70 0 -124.5 33t-76.5 106q-60 -74 -127.5 -106t-145.5 -32q-65 0 -112.5 22.5
t-79.5 62t-48 93.5t-16 117q0 58 15 118.5t44.5 116t74 104t105 85t135 57.5t166.5 21q79 0 135 -12t108 -35l-98 -380q-16 -66 -16 -109q0 -31 7.5 -51.5t20.5 -33t31 -17t40 -4.5q43 0 81.5 27t67 76.5t45.5 117t17 147.5q0 133 -41.5 234.5t-116 169.5t-177.5 102
t-226 34q-134 0 -249.5 -50.5t-200 -138.5t-132 -208t-47.5 -258q0 -168 52 -295.5t143.5 -213t214.5 -128.5t267 -43q79 0 147.5 8.5t126 23.5t104.5 34t84 41q20 11 34 11q30 0 42 -33l35 -91q-106 -70 -248.5 -114t-324.5 -44q-185 0 -343 58.5t-273 167.5t-180 265.5
t-65 352.5zM659 490q0 -66 28.5 -102t82.5 -36q27 0 54 8.5t51.5 29.5t45 55.5t33.5 86.5l75 289q-33 6 -67 6q-63 0 -119 -27.5t-96 -74.5t-64 -108t-24 -127z" />
    <glyph glyph-name="A" unicode="A" horiz-adv-x="1454" 
d="M6 0l582 1481h281l582 -1481h-213q-36 0 -59 18t-33 44l-111 303h-613l-111 -303q-8 -24 -32 -43t-59 -19h-214zM493 559h472l-181 493l-27 77.5t-29 96.5q-14 -52 -28 -97.5t-27 -78.5z" />
    <glyph glyph-name="B" unicode="B" horiz-adv-x="1334" 
d="M150 0v1481h510q145 0 248.5 -28t169.5 -79t96.5 -123.5t30.5 -164.5q0 -52 -15 -99.5t-47.5 -89t-82 -75.5t-118.5 -57q305 -69 305 -330q0 -94 -35.5 -174t-104.5 -137.5t-169 -90.5t-229 -33h-559zM425 215h280q77 0 128.5 18.5t82.5 49t45 71.5t14 87
q0 48 -15.5 86.5t-48 66t-84 41.5t-124.5 14h-278v-434zM425 840h220q140 0 213 51t73 163q0 116 -65.5 165t-205.5 49h-235v-428z" />
    <glyph glyph-name="C" unicode="C" horiz-adv-x="1373" 
d="M63 740q0 167 55.5 306t156 239t240 156t308.5 56q165 0 288.5 -52.5t211.5 -139.5l-92 -128q-8 -12 -21 -21.5t-35 -9.5q-24 0 -48.5 18.5t-62.5 40t-96 40t-147 18.5q-104 0 -191.5 -36.5t-150.5 -104t-98.5 -164.5t-35.5 -218q0 -125 35.5 -222t96 -163.5t142 -102
t176.5 -35.5q56 0 101.5 6t84 19.5t72.5 34.5t68 52q10 9 21.5 14.5t24.5 5.5q23 0 39 -17l109 -118q-90 -112 -221.5 -171t-316.5 -59q-165 0 -296.5 56t-224.5 156.5t-143 239.5t-50 304z" />
    <glyph glyph-name="D" unicode="D" horiz-adv-x="1530" 
d="M150 0v1481h565q168 0 306 -55t236.5 -152.5t152.5 -234t54 -299.5t-54 -299t-152.5 -234t-236.5 -152.5t-306 -54.5h-565zM427 219h288q109 0 195 36t146.5 103t93.5 163.5t33 218.5t-33 219t-93.5 164t-147 103t-194.5 36h-288v-1043z" />
    <glyph glyph-name="E" unicode="E" horiz-adv-x="1172" 
d="M150 0v1481h933v-219h-656v-411h517v-212h-517v-419h656v-220h-933z" />
    <glyph glyph-name="F" unicode="F" horiz-adv-x="1149" 
d="M150 0v1481h933v-219h-656v-439h554v-220h-554v-603h-277z" />
    <glyph glyph-name="G" unicode="G" horiz-adv-x="1480" 
d="M63 740q0 167 54.5 306.5t154.5 239.5t242 155.5t320 55.5q181 0 313.5 -53.5t224.5 -139.5l-80 -125q-24 -38 -62 -38q-25 0 -50 16l-67.5 38.5t-76 34t-93 24t-119.5 9.5q-110 0 -198 -37t-150.5 -105.5t-96.5 -165t-34 -215.5q0 -128 36 -227.5t100.5 -168.5
t153.5 -105t194 -36q93 0 162.5 17t131.5 46v270h-185q-27 0 -42 14.5t-15 36.5v155h492v-599q-56 -41 -117 -71t-130 -49.5t-148 -29t-170 -9.5q-162 0 -298 56t-235.5 156.5t-155.5 239.5t-56 304z" />
    <glyph glyph-name="H" unicode="H" horiz-adv-x="1548" 
d="M150 0v1481h277v-637h694v637h278v-1481h-278v647h-694v-647h-277z" />
    <glyph glyph-name="I" unicode="I" horiz-adv-x="643" 
d="M183 0v1481h277v-1481h-277z" />
    <glyph glyph-name="J" unicode="J" horiz-adv-x="894" 
d="M39 11l14 164q2 23 17 36.5t44 13.5q17 0 45 -7t71 -7q58 0 103.5 17t75.5 53.5t45.5 95.5t15.5 143v961h275v-955q0 -125 -30.5 -225t-91.5 -171t-152 -108.5t-212 -37.5q-55 0 -108.5 6.5t-111.5 20.5z" />
    <glyph glyph-name="K" unicode="K" horiz-adv-x="1429" 
d="M159 0v1482h275v-622h65q39 0 64.5 11t43.5 34l409 517q26 33 54 46t71 13h237l-498 -616q-24 -29 -45.5 -48t-46.5 -32q34 -12 61.5 -34.5t52.5 -57.5l514 -693h-244q-49 0 -73 14t-40 40l-419 547q-20 27 -46 38.5t-73 11.5h-87v-651h-275z" />
    <glyph glyph-name="L" unicode="L" horiz-adv-x="1058" 
d="M150 0v1481h275v-1254h593v-227h-868z" />
    <glyph glyph-name="M" unicode="M" horiz-adv-x="1904" 
d="M150 0v1481h207q18 0 31.5 -1t24.5 -5.5t20 -13.5t18 -24l442 -823q17 -33 32 -68t29 -71q14 37 29.5 73t33.5 68l438 821q8 15 17 24t19.5 13.5t24 5.5t31.5 1h208v-1481h-243v956q0 27 2 59t5 64l-448 -839q-15 -29 -39.5 -45t-57.5 -16h-38q-33 0 -57.5 16t-39.5 45
l-454 842q4 -34 5.5 -66t1.5 -60v-956h-242z" />
    <glyph glyph-name="N" unicode="N" horiz-adv-x="1548" 
d="M150 0v1481h144q18 0 30.5 -1.5t22 -6.5t19 -13.5t20.5 -22.5l777 -991q-4 36 -5.5 70.5t-1.5 64.5v900h243v-1481h-143q-33 0 -54 10t-42 37l-774 986q3 -33 4.5 -65t1.5 -59v-909h-242z" />
    <glyph glyph-name="O" unicode="O" horiz-adv-x="1637" 
d="M69 740q0 163 54 302t153 240t237.5 158t306.5 57t306.5 -57.5t236.5 -158t152.5 -239.5t54.5 -302t-54.5 -301.5t-152.5 -240t-236.5 -158t-306.5 -56.5t-306.5 56.5t-237.5 158t-153 240.5t-54 301zM350 740q0 -122 33 -218.5t94 -163.5t148 -103t195 -36
q109 0 195.5 36t147 103t92.5 163.5t32 218.5t-32 219t-92.5 164.5t-147 103.5t-195.5 36t-195.5 -36t-147.5 -103.5t-94 -164.5t-33 -219z" />
    <glyph glyph-name="P" unicode="P" horiz-adv-x="1280" 
d="M159 0v1481h482q148 0 257 -35t179.5 -97.5t104 -149.5t33.5 -190q0 -108 -35.5 -197.5t-107.5 -154t-179.5 -100.5t-251.5 -36h-207v-521h-275zM434 736h207q76 0 132 19t93 54.5t55.5 86t18.5 113.5q0 59 -18.5 107t-55.5 82t-93 52t-132 18h-207v-532z" />
    <glyph glyph-name="Q" unicode="Q" horiz-adv-x="1637" 
d="M69 740q0 163 54 302t153 240t237.5 158t306.5 57t306.5 -57.5t236.5 -158t152.5 -239.5t54.5 -302q0 -99 -20.5 -189.5t-59 -169.5t-94 -145t-125.5 -116l376 -410h-228q-49 0 -88.5 13.5t-72.5 49.5l-217 239q-52 -14 -106.5 -21t-114.5 -7q-168 0 -306.5 56.5
t-237.5 158t-153 240.5t-54 301zM350 740q0 -122 33 -218.5t94 -163.5t148 -103t195 -36q109 0 195.5 36t147 103t92.5 163.5t32 218.5t-32 219t-92.5 164.5t-147 103.5t-195.5 36t-195.5 -36t-147.5 -103.5t-94 -164.5t-33 -219z" />
    <glyph glyph-name="R" unicode="R" horiz-adv-x="1341" 
d="M159 0v1481h451q152 0 260 -31.5t177 -87.5t101.5 -134.5t32.5 -172.5q0 -75 -22 -141.5t-63.5 -121t-102.5 -95.5t-139 -65q52 -30 90 -85l371 -547h-248q-36 0 -61 14.5t-42 40.5l-312 474q-17 27 -38 38.5t-62 11.5h-118v-579h-275zM434 776h172q78 0 136 19.5t95 54
t55.5 81.5t18.5 103q0 113 -74 173.5t-227 60.5h-176v-492z" />
    <glyph glyph-name="S" unicode="S" horiz-adv-x="1098" 
d="M37 178l80 132q11 14 27 24t35 10q26 0 55.5 -21t70 -46.5t95.5 -46.5t131 -21q118 0 182.5 56t64.5 160q0 58 -29 95t-77 62t-109.5 42.5t-125 38t-125 49t-109.5 75t-77.5 115.5t-29.5 170q0 81 32.5 158t94.5 136t152 95t206 36q131 0 241.5 -41t188.5 -115l-68 -130
q-11 -23 -26 -32t-35 -9t-46 16t-61 35.5t-81.5 35.5t-109.5 16q-57 0 -100 -14t-72 -38.5t-43.5 -59t-14.5 -75.5q0 -52 29.5 -86.5t77.5 -59.5t109.5 -44t125.5 -41t125.5 -51.5t109.5 -74t77 -109t29 -156.5q0 -100 -34 -188t-100 -153t-161.5 -102t-218.5 -37
q-71 0 -139.5 13.5t-131.5 39t-117.5 61.5t-97.5 80z" />
    <glyph glyph-name="T" unicode="T" horiz-adv-x="1218" 
d="M25 1254v227h1168v-227h-445v-1254h-276v1254h-447z" />
    <glyph glyph-name="U" unicode="U" horiz-adv-x="1490" 
d="M132 594v887h276v-886q0 -85 23 -153.5t66 -117.5t105.5 -75.5t142.5 -26.5t143 26.5t106.5 75t66.5 117t23 153.5v887h276v-887q0 -132 -42.5 -244t-122.5 -193.5t-193.5 -127t-256.5 -45.5q-142 0 -255.5 45.5t-193 127t-122 193.5t-42.5 244z" />
    <glyph glyph-name="V" unicode="V" horiz-adv-x="1454" 
d="M4 1481h222q36 0 58.5 -17.5t33.5 -45.5l349 -903q17 -44 33 -96.5t30 -111.5q24 118 58 208l348 903q9 24 32.5 43.5t58.5 19.5h222l-598 -1481h-249z" />
    <glyph glyph-name="W" unicode="W" horiz-adv-x="2143" 
d="M12 1481h232q36 0 60 -17t32 -46l252 -886q9 -33 16.5 -71l15.5 -81q8 43 17.5 81.5t20.5 70.5l291 886q8 24 32.5 43.5t58.5 19.5h81q36 0 59.5 -17t32.5 -46l289 -886q23 -66 39 -145q7 40 15 77t16 68l252 886q7 26 31.5 44.5t59.5 18.5h216l-460 -1481h-249
l-323 1012l-13 41.5t-13 48.5q-6 -26 -12.5 -48.5l-12.5 -41.5l-327 -1012h-249z" />
    <glyph glyph-name="X" unicode="X" horiz-adv-x="1390" 
d="M12 0l493 762l-472 719h274q29 0 41.5 -8t23.5 -25l337 -544q5 13 11 26t14 26l308 487q23 38 59 38h264l-477 -708l490 -773h-275q-28 0 -45 14.5t-28 32.5l-343 567q-4 -12 -9 -22.5l-10 -20.5l-329 -524q-11 -17 -27.5 -32t-41.5 -15h-258z" />
    <glyph glyph-name="Y" unicode="Y" horiz-adv-x="1340" 
d="M-7 1481h243q36 0 56.5 -17.5t35.5 -44.5l271 -494q24 -44 41 -83.5l32 -77.5q13 39 30 78.5t40 82.5l270 494q11 23 33.5 42.5t57.5 19.5h244l-539 -906v-575h-276v575z" />
    <glyph glyph-name="Z" unicode="Z" horiz-adv-x="1263" 
d="M63 0v109q0 20 7.5 39t18.5 35l762 1079h-739v219h1095v-102q0 -47 -26 -86l-760 -1073h768v-220h-1126z" />
    <glyph glyph-name="bracketleft" unicode="[" horiz-adv-x="614" 
d="M118 -315v1899h420v-99q0 -27 -19 -46t-49 -19h-141v-1572h141q30 0 49 -18.5t19 -45.5v-99h-420z" />
    <glyph glyph-name="backslash" unicode="\" horiz-adv-x="799" 
d="M-29 1522h109q45 0 78 -23t51 -66l597 -1530h-107q-40 0 -78 23.5t-56 70.5z" />
    <glyph glyph-name="bracketright" unicode="]" horiz-adv-x="614" 
d="M77 -216q0 27 19 45.5t48 18.5h142v1572h-142q-30 0 -48.5 19t-18.5 46v99h420v-1899h-420v99z" />
    <glyph glyph-name="asciicircum" unicode="^" 
d="M125 796l382 685h164l382 -685h-186q-24 0 -38.5 12t-24.5 30l-163 296l-28 54t-21 52q-8 -27 -19.5 -53t-26.5 -53l-160 -296q-9 -17 -24.5 -29.5t-42.5 -12.5h-194z" />
    <glyph glyph-name="underscore" unicode="_" horiz-adv-x="806" 
d="M0 -137h807v-164h-807v164z" />
    <glyph glyph-name="grave" unicode="`" horiz-adv-x="653" 
d="M-1 1497h237q42 0 61.5 -14t35.5 -40l146 -249h-144q-29 0 -47 7.5t-36 28.5z" />
    <glyph glyph-name="a" unicode="a" horiz-adv-x="1072" 
d="M83 268q0 59 31 117t104 105t193.5 77.5t300.5 34.5v62q0 105 -44.5 155.5t-129.5 50.5q-61 0 -102.5 -14t-71.5 -32l-55.5 -32.5t-56.5 -14.5q-26 0 -44.5 13.5t-29.5 32.5l-46 81q181 166 437 166q92 0 164.5 -30t122.5 -84t76 -128.5t26 -163.5v-664h-113
q-36 0 -56.5 11t-30.5 43l-23 75q-40 -36 -78.5 -63t-79 -45.5t-87 -27.5t-102.5 -9q-67 0 -123 17.5t-96.5 53.5t-63 89.5t-22.5 123.5zM325 282q0 -67 39.5 -95.5t102.5 -28.5q39 0 71.5 7t62 21.5t56.5 35.5t55 49v178q-111 -5 -185 -19t-119.5 -35.5t-64 -50.5
t-18.5 -62z" />
    <glyph glyph-name="b" unicode="b" horiz-adv-x="1167" 
d="M138 0v1522h253v-600q62 67 141 106t185 39q86 0 157 -35.5t123 -103t80 -166.5t28 -228q0 -118 -32 -218.5t-90.5 -174t-142 -115t-187.5 -41.5q-48 0 -88 9.5t-72.5 27t-61 42.5t-53.5 56l-11 -71q-6 -27 -21 -38t-41 -11h-167zM391 272q43 -53 94 -74t110 -21
q57 0 103 21.5t78.5 65.5t50 111t17.5 159t-15 156t-42.5 104t-67 58t-89.5 18q-79 0 -135 -33t-104 -94v-471z" />
    <glyph glyph-name="c" unicode="c" horiz-adv-x="976" 
d="M65 527q0 116 33 215t97.5 171t160 113t218.5 41q118 0 206.5 -38t159.5 -108l-67 -93q-11 -14 -21.5 -22t-31.5 -8q-19 0 -37.5 11.5l-44 26.5t-61 26.5t-87.5 11.5q-67 0 -117 -24t-83.5 -69t-49.5 -109t-16 -145q0 -84 17.5 -149.5t51.5 -110t82 -67.5t109 -23
q60 0 97.5 15t63 33l44.5 32.5t42 14.5q31 0 47 -23l72 -92q-42 -49 -91 -82.5t-101.5 -53.5t-109 -28t-111.5 -8q-97 0 -183.5 36t-150.5 106t-101 170.5t-37 229.5z" />
    <glyph glyph-name="d" unicode="d" horiz-adv-x="1167" 
d="M62 522q0 117 32 217.5t91.5 174t142.5 115t186 41.5q88 0 150.5 -28t111.5 -75v555h253v-1522h-155q-49 0 -64 46l-20 101q-33 -37 -69 -66.5t-77.5 -51t-89 -33t-102.5 -11.5q-86 0 -158 35.5t-123.5 104t-80 168.5t-28.5 229zM324 522q0 -92 14.5 -156t42.5 -104.5
t68 -58.5t89 -18q79 0 134 33t104 93v471q-43 52 -93.5 74t-109.5 22q-57 0 -103.5 -21.5t-79 -65t-49.5 -111t-17 -158.5z" />
    <glyph glyph-name="e" unicode="e" horiz-adv-x="1094" 
d="M65 548q0 108 34.5 202.5t99.5 164.5t158.5 111t211.5 41q99 0 183 -31.5t144 -92.5t94 -149.5t34 -202.5q0 -29 -2.5 -48t-9 -29.5t-18 -15t-28.5 -4.5h-650q11 -162 87 -238t201 -76q61 0 106 14.5t78 32l58 31.5t49 14q15 0 26.5 -6t19.5 -17l74 -92
q-42 -49 -94.5 -82.5t-109 -53.5t-115.5 -28t-114 -8q-110 0 -204 36t-164 107.5t-109.5 176.5t-39.5 243zM322 646h475q0 49 -13.5 92.5t-41 76.5t-70 52t-98.5 19q-111 0 -173 -62.5t-79 -177.5z" />
    <glyph glyph-name="f" unicode="f" horiz-adv-x="717" 
d="M24 938v103h156v78q0 90 27 162t78 122t123.5 76.5t163.5 26.5q73 0 136 -19l-6 -127q-2 -30 -27.5 -37t-59.5 -7q-45 0 -80 -10t-59.5 -34t-37.5 -63.5t-13 -97.5v-70h273v-180h-265v-861h-253v860l-91 14q-30 5 -47.5 20.5t-17.5 43.5z" />
    <glyph glyph-name="g" unicode="g" horiz-adv-x="1059" 
d="M33 -92q0 74 45 124t125 80q-39 22 -62.5 57.5t-23.5 92.5q0 24 8 49t25 49.5t42.5 46.5t60.5 39q-80 43 -125.5 115t-45.5 168q0 78 31 141t87 107.5t132.5 68t166.5 23.5q68 0 127 -14t108 -40h302v-94q0 -24 -12 -37.5t-42 -18.5l-94 -17q10 -27 15.5 -56.5t5.5 -62.5
q0 -78 -31 -141t-86 -107t-130 -68t-163 -24q-59 0 -116 11q-49 -30 -49 -66q0 -32 29 -47t76.5 -21t108 -7.5t124 -6.5t124 -18t108 -40.5t77 -75t29.5 -122.5q0 -70 -34.5 -135.5t-99.5 -116.5t-159 -82.5t-215 -31.5q-120 0 -208 23t-146 61.5t-86.5 89t-28.5 104.5z
M252 -59q0 -28 14 -52t44 -41.5t78 -27t118 -9.5q71 0 122 10.5t84 29.5t48.5 45t15.5 57t-18.5 50.5t-50 30t-74 15.5t-90 7.5t-98.5 5.5t-98 9q-43 -24 -69 -56t-26 -74zM312 723q0 -37 12 -68.5t35 -54.5t58.5 -36t81.5 -13q47 0 81.5 13t58 35.5t35 54t11.5 69.5
q0 78 -46.5 123.5t-139.5 45.5t-140 -45.5t-47 -123.5z" />
    <glyph glyph-name="h" unicode="h" horiz-adv-x="1164" 
d="M135 0v1522h253v-585q61 58 135 94t173 36q86 0 152.5 -29t111.5 -82t68 -126t23 -161v-669h-253v669q0 96 -44.5 148.5t-133.5 52.5q-66 0 -123.5 -29.5t-108.5 -80.5v-760h-253z" />
    <glyph glyph-name="i" unicode="i" horiz-adv-x="555" 
d="M119 1357q0 34 12.5 63.5t34 51t51 34.5t62.5 13q34 0 63.5 -13t51.5 -34.5t35 -51t13 -63.5q0 -33 -13 -61.5t-35 -50t-52 -34.5t-63 -13t-62.5 13t-51 34.5t-34 50t-12.5 61.5zM152 0v1051h252v-1051h-252z" />
    <glyph glyph-name="j" unicode="j" horiz-adv-x="550" 
d="M-59 -349l8 136q3 20 16 26t51 6t64 7.5t42 24.5t23 44.5t7 68.5v1087h252v-1087q0 -69 -17.5 -129t-57 -105.5t-103.5 -72t-156 -26.5q-36 0 -67 5t-62 15zM119 1357q0 34 12.5 63.5t34 51t51 34.5t62.5 13q34 0 63.5 -13t51.5 -34.5t35 -51t13 -63.5q0 -33 -13 -61.5
t-35 -50t-52 -34.5t-63 -13t-62.5 13t-51 34.5t-34 50t-12.5 61.5z" />
    <glyph glyph-name="k" unicode="k" horiz-adv-x="1129" 
d="M138 0v1522h253v-872h47q26 0 40.5 7.5t30.5 26.5l261 323q17 20 36.5 32t51.5 12h232l-327 -391q-17 -22 -35.5 -39.5t-40.5 -30.5q22 -15 38 -35.5l33 -44.5l350 -510h-228q-30 0 -50.5 10t-36.5 35l-268 398q-15 24 -30.5 31t-45.5 7h-58v-481h-253z" />
    <glyph glyph-name="l" unicode="l" horiz-adv-x="555" 
d="M152 0v1522h252v-1522h-252z" />
    <glyph glyph-name="m" unicode="m" horiz-adv-x="1724" 
d="M135 0v1051h155q49 0 64 -46l17 -78q28 31 58 56.5t64 44t73.5 29t86.5 10.5q99 0 163.5 -54t95.5 -143q25 52 62 89.5t81 61t93.5 35t99.5 11.5q87 0 154.5 -26.5t114 -78t70.5 -125t24 -168.5v-669h-253v669q0 100 -44 150.5t-129 50.5q-39 0 -72.5 -13t-58.5 -38
t-39.5 -63t-14.5 -87v-669h-254v669q0 105 -42 153t-125 48q-54 0 -102 -27t-89 -74v-769h-253z" />
    <glyph glyph-name="n" unicode="n" horiz-adv-x="1164" 
d="M135 0v1051h155q49 0 64 -46l18 -83q32 33 67 59.5t74.5 46t84.5 29.5t98 10q86 0 152.5 -29t111.5 -82t68 -126t23 -161v-669h-253v669q0 96 -44.5 148.5t-133.5 52.5q-66 0 -123.5 -29.5t-108.5 -80.5v-760h-253z" />
    <glyph glyph-name="o" unicode="o" horiz-adv-x="1164" 
d="M62 527q0 124 37.5 224.5t105.5 170t164.5 107.5t214.5 38t213.5 -38t163 -107.5t104.5 -170t37 -224.5q0 -125 -37 -225t-104.5 -171t-163.5 -108.5t-213 -37.5q-118 0 -214.5 37.5t-164.5 108.5t-105.5 171t-37.5 225zM324 525q0 -169 63.5 -257.5t196.5 -88.5
q131 0 194 88t63 258t-63 259t-194 89q-133 0 -196.5 -89.5t-63.5 -258.5z" />
    <glyph glyph-name="p" unicode="p" horiz-adv-x="1158" 
d="M135 -343v1394h155q25 0 42 -11.5t22 -34.5l21 -98q63 73 145.5 118t193.5 45q86 0 157 -36t123 -104t80 -167.5t28 -228.5q0 -118 -32 -218.5t-90.5 -174t-142 -115t-187.5 -41.5q-89 0 -151 27t-111 75v-430h-253zM388 272q43 -53 93.5 -74t109.5 -21q57 0 103.5 21.5
t79 65.5t50 111t17.5 159t-15 156t-42.5 104t-67 58t-89.5 18q-79 0 -135 -33t-104 -94v-471z" />
    <glyph glyph-name="q" unicode="q" horiz-adv-x="1167" 
d="M62 522q0 117 32 217.5t91.5 174t142.5 115t186 41.5q49 0 89.5 -8.5t75 -25t63 -39t55.5 -51.5l13 59q5 24 22.5 35t41.5 11h155v-1394h-253v475q-32 -34 -67 -61t-75 -46t-85 -29.5t-97 -10.5q-86 0 -158 35.5t-123.5 104t-80 168.5t-28.5 229zM324 522
q0 -92 14.5 -156t42.5 -104.5t68 -58.5t89 -18q79 0 134 33t104 93v471q-43 52 -93.5 74t-109.5 22q-57 0 -103.5 -21.5t-79 -65t-49.5 -111t-17 -158.5z" />
    <glyph glyph-name="r" unicode="r" horiz-adv-x="836" 
d="M135 0v1051h149q39 0 54 -14.5t20 -49.5l16 -127q56 97 132 153.5t170 56.5q78 0 129 -36l-33 -189q-3 -18 -13 -26t-28 -8q-15 0 -41.5 7t-71.5 7q-79 0 -135 -43.5t-95 -127.5v-654h-253z" />
    <glyph glyph-name="s" unicode="s" horiz-adv-x="894" 
d="M43 113l58 96q11 17 26.5 26.5t39.5 9.5t44.5 -13.5t48.5 -29t65 -28.5t95 -13q45 0 77 10.5t53 28t31 40.5t10 48q0 37 -22 60.5t-58.5 41t-83 31t-95 30t-95.5 38.5t-83 56t-58 83t-22 118q0 65 25.5 123.5t75 102t124 69.5t171.5 26q109 0 198 -36t148 -94l-57 -91
q-10 -16 -21.5 -23t-28.5 -7q-18 0 -39.5 10.5l-49 23t-63 23t-83.5 10.5q-75 0 -118 -32t-43 -83q0 -34 22 -57t58.5 -40.5t82.5 -31t94 -30t94.5 -37.5t82.5 -53.5t58 -77.5t22 -108q0 -76 -27.5 -140t-80.5 -110.5t-131.5 -72.5t-179.5 -26q-54 0 -106 9.5t-99.5 27
t-88 41t-71.5 51.5z" />
    <glyph glyph-name="t" unicode="t" horiz-adv-x="792" 
d="M40 914v101l169 27l53 287q4 20 19 31.5t37 11.5h132v-331h276v-180h-276v-569q0 -49 24.5 -77t65.5 -28q24 0 39.5 6t27 12t21 11.5t18.5 5.5q11 0 18.5 -5.5t15.5 -16.5l76 -123q-55 -46 -127 -69.5t-149 -23.5q-136 0 -209.5 77t-73.5 213v587h-107q-20 0 -35 13.5
t-15 39.5z" />
    <glyph glyph-name="u" unicode="u" horiz-adv-x="1164" 
d="M114 383v668h253v-668q0 -96 44.5 -149t133.5 -53q66 0 123 29.5t108 80.5v760h253v-1051h-155q-49 0 -64 46l-17 84q-33 -33 -68 -60t-74.5 -46t-85 -29.5t-97.5 -10.5q-86 0 -152 29t-111 82t-68 126.5t-23 161.5z" />
    <glyph glyph-name="v" unicode="v" horiz-adv-x="1092" 
d="M14 1051h210q28 0 47 -13.5t26 -33.5l203 -562q17 -49 29 -96t21 -94q9 47 21 94t30 96l208 562q7 20 25.5 33.5t44.5 13.5h199l-416 -1051h-230z" />
    <glyph glyph-name="w" unicode="w" horiz-adv-x="1619" 
d="M7 1051h201q29 0 48 -13.5t25 -33.5l150 -562q12 -46 20 -90t15 -88q11 44 24 88l27 90l174 564q6 20 24.5 33.5t43.5 13.5h111q28 0 46.5 -13.5t24.5 -33.5l172 -574q13 -44 24 -85.5t21 -83.5q7 44 16 88t22 91l156 562q5 20 24.5 33.5t44.5 13.5h192l-333 -1051h-204
q-33 0 -47 45l-189 607q-9 30 -17 60t-13 60q-6 -31 -13 -61t-17 -61l-191 -605q-14 -45 -55 -45h-194z" />
    <glyph glyph-name="x" unicode="x" horiz-adv-x="1105" 
d="M25 0l359 542l-345 509h244q28 0 41 -8t23 -25l220 -351q5 17 13 34.5t19 34.5l177 277q12 19 25.5 28.5t33.5 9.5h232l-346 -498l360 -553h-243q-28 0 -45 14.5t-28 32.5l-223 366q-9 -37 -26 -62l-197 -304q-11 -17 -27.5 -32t-40.5 -15h-226z" />
    <glyph glyph-name="y" unicode="y" horiz-adv-x="1092" 
d="M7 1051h221q31 0 47.5 -14.5t24.5 -32.5l224 -545q11 -27 19.5 -55.5t14.5 -57.5q8 30 18 57.5l21 56.5l211 544q8 20 27 33.5t43 13.5h202l-572 -1340q-11 -27 -29 -40.5t-55 -13.5h-188l196 421z" />
    <glyph glyph-name="z" unicode="z" horiz-adv-x="961" 
d="M69 0v105q0 17 8 41.5t25 46.5l504 664h-508v194h797v-105q0 -27 -9.5 -52t-23.5 -42l-500 -657h519v-195h-812z" />
    <glyph glyph-name="braceleft" unicode="{" horiz-adv-x="614" 
d="M30 561v147q65 0 94 39t29 102q0 48 -7 95.5t-15.5 96t-15 97t-6.5 98.5q0 78 22.5 142t69 110t117.5 71t167 25h55v-113q0 -13 -6 -22.5t-14.5 -16t-17.5 -9.5t-17 -3h-9q-72 0 -109.5 -45t-37.5 -124q0 -56 6 -107.5t12.5 -100.5l13 -96t6.5 -95q0 -39 -11 -74t-32 -63
t-50 -49.5t-66 -31.5q37 -11 66 -32t50 -50t32 -63.5t11 -72.5q0 -48 -6.5 -95.5l-13 -96t-12.5 -100t-6 -108.5q0 -78 37.5 -123t109.5 -45h9q7 0 16.5 -3t18 -9t14.5 -16t6 -24v-111h-55q-96 0 -167 25t-117.5 70.5t-69 109.5t-22.5 142q0 50 6.5 98.5t15 96.5t15.5 96.5
t7 96.5q0 62 -29.5 101.5t-93.5 39.5z" />
    <glyph glyph-name="bar" unicode="|" horiz-adv-x="614" 
d="M209 -343v1927h197v-1927h-197z" />
    <glyph glyph-name="braceright" unicode="}" horiz-adv-x="614" 
d="M75 -204q0 13 5.5 23.5t14 16.5t18 9t16.5 3h9q72 0 110 45.5t38 122.5q0 56 -6.5 108l-13 100.5l-12.5 96t-6 95.5q0 38 10.5 72.5t31 63.5t50.5 50t67 32q-37 10 -67 31.5t-50.5 49.5t-31 63t-10.5 74q0 48 6 95l12.5 96l13 100.5t6.5 107.5q0 79 -38 124t-110 45h-9
q-7 0 -16.5 3t-18 9.5t-14 16t-5.5 22.5v113h54q96 0 167.5 -25t118 -71t69 -110t22.5 -142q0 -50 -6.5 -98.5t-15.5 -97t-15.5 -96t-6.5 -95.5q0 -62 29 -101.5t94 -39.5v-147q-65 0 -94 -39.5t-29 -101.5q0 -48 6.5 -96.5t15.5 -96.5t15.5 -96.5t6.5 -98.5
q0 -78 -22.5 -142t-69 -109.5t-118 -70.5t-167.5 -25h-54v111z" />
    <glyph glyph-name="asciitilde" unicode="~" 
d="M100 408q0 79 21 142.5t60.5 109.5t97 70.5t131.5 24.5q54 0 103.5 -14.5t94 -31.5l83.5 -31t72 -14q57 0 89 36.5t32 103.5h203q0 -79 -20.5 -143t-60 -109.5t-97 -70t-131.5 -24.5q-54 0 -103.5 14t-94 31l-83.5 31.5t-72 14.5q-57 0 -89 -37t-32 -103h-204z" />
    <glyph glyph-name="uni00A0" unicode="&#xa0;" horiz-adv-x="395" 
 />
    <glyph glyph-name="exclamdown" unicode="&#xa1;" horiz-adv-x="738" 
d="M214 913q0 33 12 61t32.5 48.5t49 32.5t61.5 12t61 -12t49 -32.5t33 -48.5t12 -61t-12 -61t-33 -48.5t-49.5 -32.5t-60.5 -12q-33 0 -61.5 12t-49 32.5t-32.5 48.5t-12 61zM253 203q0 93 9 182.5t25 189.5h171q15 -100 24.5 -189.5t9.5 -182.5v-546h-239v546z" />
    <glyph glyph-name="cent" unicode="&#xa2;" 
d="M126 525q0 112 34 208.5t100 168.5t162.5 115t221.5 48l14 161q2 24 20.5 43.5t48.5 19.5h93l-20 -234q81 -14 146.5 -48.5t120.5 -85.5l-66 -90q-10 -14 -20 -21t-31 -7q-14 0 -29.5 6.5t-35.5 17t-44.5 20.5t-57.5 18l-59 -689q54 5 90.5 20t62.5 30.5l45.5 27.5
t40.5 12q31 0 47 -21l69 -90q-36 -42 -79 -72t-90 -50t-98 -30.5t-104 -14.5l-13 -151q-2 -25 -20.5 -44.5t-47.5 -19.5h-93l18 219q-91 13 -169 54.5t-135.5 109.5t-89.5 161t-32 208zM376 525q0 -137 50 -221.5t143 -114.5l59 683q-129 -16 -190.5 -106t-61.5 -241z" />
    <glyph glyph-name="sterling" unicode="&#xa3;" 
d="M40 614v81q0 35 21.5 60t63.5 25h111v242q0 96 28.5 182.5t87 151.5t146.5 103t207 38q82 0 146.5 -21t115.5 -57t88.5 -84.5t63.5 -104.5l-101 -65q-33 -16 -59 -16q-38 0 -67 34q-19 23 -38 41.5t-41 32t-48.5 20.5t-59.5 7q-105 0 -157.5 -69t-52.5 -192v-243h418
v-100q0 -25 -20 -45.5t-51 -20.5h-347v-198q0 -68 -25.5 -120.5t-69.5 -97.5q76 17 151 17h600v-106q0 -18 -7.5 -38t-22 -36t-34.5 -25.5t-45 -9.5h-982v159q35 8 67 23t56 38t38.5 54t14.5 73v267h-196z" />
    <glyph glyph-name="currency" unicode="&#xa4;" 
d="M113 1039l128 125l153 -153q44 27 94.5 41.5t105.5 14.5q53 0 102 -14t92 -39l156 155l126 -126l-155 -154q27 -44 42 -94.5t15 -105.5q0 -54 -14 -102t-39 -91l156 -156l-128 -126l-154 154q-43 -27 -93.5 -41.5t-105.5 -14.5q-53 0 -102 13.5t-92 39.5l-156 -156
l-126 127l154 153q-27 44 -41.5 94.5t-14.5 105.5q0 54 14 103t39 92zM402 689q0 -39 15 -74t41 -61.5t61 -41.5t75 -15t75.5 15t61.5 41.5t41 61.5t15 74q0 41 -15 76.5t-41 61.5t-61.5 41.5t-75.5 15.5t-75 -15.5t-61 -41.5t-41 -61.5t-15 -76.5z" />
    <glyph glyph-name="yen" unicode="&#xa5;" 
d="M11 1481h210q36 0 58.5 -17t34.5 -45l225 -499q20 -46 32.5 -85t20.5 -77q8 38 20 77t32 85l222 499q11 24 34 43t57 19h212l-408 -833h282v-141h-326v-97h326v-141h-326v-269h-253v269h-328v141h328v97h-328v141h283z" />
    <glyph glyph-name="brokenbar" unicode="&#xa6;" horiz-adv-x="614" 
d="M209 -343v827h197v-827h-197zM209 756v828h197v-828h-197z" />
    <glyph glyph-name="section" unicode="&#xa7;" horiz-adv-x="1034" 
d="M96 701q0 81 42.5 145t129.5 102q-47 40 -76.5 95t-29.5 133q0 65 25 122.5t75 101.5t124 70t171 26q109 0 198.5 -36t147.5 -94l-56 -91q-10 -16 -21.5 -23.5t-28.5 -7.5q-19 0 -40.5 10.5l-49 23t-63 23t-83.5 10.5q-43 0 -75.5 -10t-54.5 -27t-34 -39.5t-12 -47.5
q0 -33 24 -57.5t64 -46.5t90.5 -42.5l104 -43.5t104 -50.5t90.5 -63.5t64 -83t24 -109q0 -83 -38.5 -150t-123.5 -108q46 -38 75.5 -88t29.5 -120q0 -76 -27 -139.5t-80.5 -110.5t-132 -73t-180.5 -26q-54 0 -106 10t-99.5 27t-88 40.5t-70.5 51.5l59 96q11 17 26 26.5
t38 9.5q24 0 45 -13t49.5 -28.5t68.5 -29t101 -13.5q84 0 130.5 35t46.5 96q0 41 -24.5 71t-65.5 53t-93 42l-105.5 40.5t-105.5 47.5t-93 62t-65.5 85t-24.5 116zM321 742q0 -43 29.5 -74t77 -56t107 -48t117.5 -50q41 20 59.5 51.5t18.5 68.5q0 45 -28.5 76t-74.5 57
t-104 48.5t-115 48.5q-46 -25 -66.5 -54t-20.5 -68z" />
    <glyph glyph-name="dieresis" unicode="&#xa8;" horiz-adv-x="653" 
d="M-6 1323q0 30 11 56t30.5 45.5t44.5 30.5t53 11q29 0 55 -11t46 -30.5t31 -45.5t11 -56q0 -29 -11 -54t-31 -43.5t-46 -29t-55 -10.5q-28 0 -53 10.5t-44.5 29t-30.5 43.5t-11 54zM377 1323q0 30 11 56t30 45.5t44.5 30.5t54.5 11t55 -11t45.5 -30.5t30.5 -45.5t11 -56
q0 -29 -11 -54t-30.5 -43.5t-45.5 -29t-55 -10.5t-54.5 10.5t-44.5 29t-30 43.5t-11 54z" />
    <glyph glyph-name="copyright" unicode="&#xa9;" horiz-adv-x="1620" 
d="M54 740q0 104 27.5 201t76.5 181t118 153.5t153 118.5t180.5 76t200.5 27t201 -27t181 -76t153 -118.5t118 -153.5t76.5 -180.5t27.5 -201.5q0 -103 -27.5 -200t-76.5 -180.5t-118 -152.5t-153 -118t-181 -76t-201 -27t-200.5 27t-180.5 76t-153 118t-118 152.5
t-76.5 180t-27.5 200.5zM193 740q0 -133 47.5 -248.5t131 -201t196 -135t242.5 -49.5t243.5 49.5t197.5 135t132.5 201t48.5 248.5q0 89 -22 171t-62 153.5t-97 129t-125.5 99t-148.5 64t-167 22.5t-166.5 -22.5t-148 -64t-124.5 -99t-95.5 -129t-61 -153.5t-21.5 -171z
M362 743q0 104 36 191.5t99.5 150.5t149 98t186.5 35q115 0 196 -38t136 -99l-66 -91q-6 -8 -16.5 -16t-27.5 -8t-32.5 10t-37 22.5t-54.5 22.5t-85 10q-61 0 -109.5 -20t-81.5 -57.5t-50.5 -90.5t-17.5 -120q0 -70 18 -123t49.5 -89t75 -55t94.5 -19q50 0 82.5 8t55 19.5
t39.5 22.5t40 17q11 0 20.5 -4.5t15.5 -12.5l84 -89q-57 -73 -144 -111.5t-205 -38.5q-102 0 -185 36.5t-142 100.5t-91 150.5t-32 187.5z" />
    <glyph glyph-name="ordfeminine" unicode="&#xaa;" horiz-adv-x="712" 
d="M83 1026q0 34 17.5 69t60.5 64t115.5 48t183.5 22v25q0 55 -24 78.5t-70 23.5q-35 0 -57.5 -7.5t-40 -16.5t-33 -16t-36.5 -7q-19 0 -32.5 10t-21.5 23l-31 59q57 52 125.5 76t148.5 24q57 0 103.5 -18.5t78.5 -51.5t49.5 -78t17.5 -99v-393h-85q-25 0 -39 6.5t-23 30.5
l-12 37q-25 -20 -47 -35.5t-46 -26t-51 -15.5t-61 -5q-43 0 -77.5 11.5t-59.5 33.5t-39 54t-14 74zM257 1035q0 -33 19 -45.5t55 -12.5q39 0 68.5 14t60.5 43v83q-60 -2 -99 -9t-62.5 -18t-32.5 -24.5t-9 -30.5z" />
    <glyph glyph-name="guillemotleft" unicode="&#xab;" horiz-adv-x="995" 
d="M126 535v32l262 406l83 -39q20 -9 29.5 -23.5t9.5 -31.5q0 -22 -13 -44l-142 -241q-14 -27 -32 -43q16 -14 32 -43l142 -242q13 -23 13 -45q0 -35 -39 -53l-83 -39zM463 535v32l262 406l83 -39q20 -9 29.5 -23.5t9.5 -31.5q0 -22 -13 -44l-142 -241q-14 -27 -33 -43
q16 -14 33 -43l142 -242q13 -23 13 -45q0 -35 -39 -53l-83 -39z" />
    <glyph glyph-name="logicalnot" unicode="&#xac;" 
d="M139 594v187h908v-477h-214v290h-694z" />
    <glyph glyph-name="uni00AD" unicode="&#xad;" horiz-adv-x="735" 
d="M102 513v211h531v-211h-531z" />
    <glyph glyph-name="registered" unicode="&#xae;" horiz-adv-x="1620" 
d="M54 740q0 104 27.5 201t76.5 181t118 153.5t153 118.5t180.5 76t200.5 27t201 -27t181 -76t153 -118.5t118 -153.5t76.5 -180.5t27.5 -201.5q0 -103 -27.5 -200t-76.5 -180.5t-118 -152.5t-153 -118t-181 -76t-201 -27t-200.5 27t-180.5 76t-153 118t-118 152.5
t-76.5 180t-27.5 200.5zM193 740q0 -133 47.5 -248.5t131 -201t196 -135t242.5 -49.5t243.5 49.5t197.5 135t132.5 201t48.5 248.5q0 89 -22 171t-62 153.5t-97 129t-125.5 99t-148.5 64t-167 22.5t-166.5 -22.5t-148 -64t-124.5 -99t-95.5 -129t-61 -153.5t-21.5 -171z
M476 284v918h329q191 0 280.5 -68.5t89.5 -196.5q0 -91 -47.5 -159t-146.5 -100q24 -13 39 -33t31 -47l185 -314h-211q-46 0 -64 33l-148 270q-10 14 -23 21.5t-38 7.5h-57v-332h-219zM695 773h91q52 0 86 9t53 26t26 43t7 58t-6 56t-23 40t-47 23.5t-77 7.5h-110v-263z" />
    <glyph glyph-name="macron" unicode="&#xaf;" horiz-adv-x="653" 
d="M20 1243v162h613v-162h-613z" />
    <glyph glyph-name="degree" unicode="&#xb0;" horiz-adv-x="822" 
d="M56 1150q0 73 27.5 137t75 111t112 74t139.5 27t139.5 -27t113 -74t76 -111t27.5 -137q0 -71 -27.5 -134.5t-76 -111t-113.5 -75t-139 -27.5q-75 0 -139.5 27.5t-112 75t-75 111t-27.5 134.5zM232 1148q0 -38 13.5 -71t37.5 -57t56.5 -37.5t70.5 -13.5t70.5 13.5
t56.5 37.5t37.5 57t13.5 71q0 39 -13.5 72t-37.5 58t-57 39t-70 14q-38 0 -70.5 -14t-56.5 -39t-37.5 -58t-13.5 -72z" />
    <glyph glyph-name="plusminus" unicode="&#xb1;" 
d="M93 82v187h1000v-187h-1000zM93 720v188h396v363h205v-363h399v-188h-399v-349h-205v349h-396z" />
    <glyph glyph-name="uni00B2" unicode="&#xb2;" horiz-adv-x="681" 
d="M71 922v58q0 17 6.5 36.5t22.5 36.5l214 211q23 23 43.5 47.5t35 49.5t23 50.5t8.5 48.5q0 37 -20 60t-56 23q-34 0 -54.5 -17t-33.5 -48q-11 -18 -24 -27.5t-36 -9.5q-5 0 -11 0.5t-13 1.5l-101 15q17 118 92.5 174.5t190.5 56.5q59 0 106 -17.5t79 -47.5t48.5 -70.5
t16.5 -87.5q0 -42 -12.5 -76.5t-33.5 -66.5t-49 -61.5l-57 -60.5l-131 -133q29 8 56.5 12.5t50.5 4.5h132q29 0 45 -15t16 -41v-107h-554z" />
    <glyph glyph-name="uni00B3" unicode="&#xb3;" horiz-adv-x="681" 
d="M76 1119l79 32q23 8 41 8q38 0 52 -29q6 -11 14 -23t20.5 -22t29 -16t37.5 -6q46 0 70.5 25.5t24.5 61.5q0 28 -7 46t-24 29.5t-46 16t-72 4.5v119q43 0 71 6.5t44 18.5t22.5 29.5t6.5 38.5q0 38 -20 60t-60 22q-36 0 -56.5 -17t-32.5 -43q-9 -20 -21 -30t-33 -10
q-11 0 -27 3l-93 15q8 58 32.5 102t60 72.5t82 42.5t98.5 14q58 0 103 -17t77 -45t48 -63t16 -73q0 -65 -26.5 -109.5t-84.5 -68.5q61 -20 93 -57.5t32 -98.5q0 -63 -23.5 -109t-61.5 -76t-86 -44.5t-98 -14.5q-55 0 -99 11t-78.5 35t-60 63.5t-44.5 96.5z" />
    <glyph glyph-name="acute" unicode="&#xb4;" horiz-adv-x="653" 
d="M193 1194l145 249q15 27 35.5 40.5t61.5 13.5h246l-253 -267q-19 -20 -37 -28t-47 -8h-151z" />
    <glyph glyph-name="uni00B5" unicode="&#xb5;" horiz-adv-x="1164" 
d="M114 -238v1289h253v-668q0 -96 44.5 -149t133.5 -53q66 0 123 29.5t108 80.5v760h253v-1051h-155q-49 0 -64 46l-17 85q-32 -32 -63 -54t-62.5 -35.5t-66 -20t-73.5 -6.5q-60 0 -109 18.5t-87 52.5q11 -45 14.5 -93t3.5 -90v-246h-125q-53 0 -82 27t-29 78z" />
    <glyph glyph-name="paragraph" unicode="&#xb6;" horiz-adv-x="1434" 
d="M34 1062q0 93 33 170t94 132t147 86t193 31h902v-212h-219v-1483h-221v1483h-241v-1483h-221v859q-106 0 -192.5 33.5t-147.5 90t-94 132.5t-33 161z" />
    <glyph glyph-name="periodcentered" unicode="&#xb7;" horiz-adv-x="572" 
d="M93 609q0 40 15 75.5t41 61.5t61 41t75 15q41 0 76 -15t61.5 -41t41.5 -61.5t15 -75.5t-15 -74t-41.5 -60t-61.5 -41t-76 -15q-40 0 -75 15t-61 41t-41 60t-15 74z" />
    <glyph glyph-name="cedilla" unicode="&#xb8;" horiz-adv-x="653" 
d="M135 -334l24 78q5 24 28 24q7 0 15 -2.5l17.5 -5.5t21.5 -5t28 -2q34 0 51 13t17 31q0 30 -37 43t-114 23l46 151h158l-20 -70q91 -23 128 -61.5t37 -90.5q0 -34 -18 -61.5t-51 -47t-79 -30t-101 -10.5q-42 0 -78.5 6t-72.5 17z" />
    <glyph glyph-name="uni00B9" unicode="&#xb9;" horiz-adv-x="681" 
d="M97 1482l239 198h152v-642h118v-116h-441v116h142v369l5 52l-79 -62q-16 -12 -34 -13q-15 0 -27.5 6.5t-17.5 14.5z" />
    <glyph glyph-name="ordmasculine" unicode="&#xba;" horiz-adv-x="794" 
d="M62 1177q0 75 25 134.5t69 101t105.5 64t137.5 22.5q74 0 135.5 -22.5t105.5 -64t68 -101.5t24 -134q0 -76 -24 -137t-68 -103.5t-105.5 -65t-135.5 -22.5q-76 0 -137.5 22.5t-105.5 65t-69 103.5t-25 137zM260 1175q0 -91 33 -135t106 -44q69 0 102.5 43.5t33.5 135.5
q0 91 -33.5 134t-102.5 43q-73 0 -106 -43t-33 -134z" />
    <glyph glyph-name="guillemotright" unicode="&#xbb;" horiz-adv-x="995" 
d="M147 223q0 20 14 43l141 242q16 29 33 43q-18 16 -33 43l-141 241q-13 23 -14 44q0 37 39 55l83 39l262 -406v-32l-262 -406l-83 39q-20 9 -29.5 23.5t-9.5 31.5zM484 223q0 20 14 43l141 242q16 29 33 43q-18 16 -33 43l-141 241q-13 23 -14 44q0 37 39 55l83 39
l262 -406v-32l-262 -406l-83 39q-20 9 -29.5 23.5t-9.5 31.5z" />
    <glyph glyph-name="onequarter" unicode="&#xbc;" horiz-adv-x="1458" 
d="M78 1283l238 199h153v-642h118v-117h-442v117h143v368l5 53l-79 -63q-16 -12 -35 -12q-15 0 -27.5 6t-17.5 14zM231 0l854 1398q24 39 55.5 61t78.5 22h107l-860 -1408q-27 -42 -57 -57.5t-69 -15.5h-109zM834 281l343 478h175v-470h96v-90q0 -13 -9 -23.5t-26 -10.5h-61
v-165h-152v165h-296q-25 0 -38.5 10.5t-16.5 27.5zM1000 289h200v172q0 24 1.5 52.5t5.5 58.5z" />
    <glyph glyph-name="onehalf" unicode="&#xbd;" horiz-adv-x="1458" 
d="M78 1283l238 199h153v-642h118v-117h-442v117h143v368l5 53l-79 -63q-16 -12 -35 -12q-15 0 -27.5 6t-17.5 14zM189 0l854 1398q24 39 55.5 61t78.5 22h107l-860 -1408q-27 -42 -57 -57.5t-69 -15.5h-109zM867 0v58q0 17 7 37t23 36l214 211q23 23 43.5 48t34.5 50t23 50
t9 49q0 37 -20 60t-56 23q-34 0 -53.5 -16t-34.5 -50q-16 -37 -61 -37q-5 0 -10.5 0.5t-12.5 1.5l-102 16q17 118 93 174t191 56q59 0 106 -17.5t79 -47t48.5 -70t16.5 -87.5q0 -42 -13 -77t-34 -66.5t-48.5 -61.5l-57.5 -60l-131 -134q29 8 56.5 13t51.5 5h132
q29 0 44.5 -15.5t15.5 -40.5v-108h-554z" />
    <glyph glyph-name="threequarters" unicode="&#xbe;" horiz-adv-x="1459" 
d="M56 921l79 31q23 8 41 9q38 0 52 -29q6 -11 14.5 -23.5t20.5 -22t28.5 -16t38.5 -6.5q46 0 70.5 25.5t24.5 61.5q0 28 -7 46.5t-24 29.5t-46.5 16t-72.5 5v118q43 0 71.5 7t44.5 18.5t22.5 29t6.5 39.5q0 38 -20 59.5t-60 21.5q-36 0 -57 -16t-32 -44q-10 -20 -22 -30
t-32 -10q-11 0 -27 3l-93 16q8 58 32 101.5t60 72t82 42.5t98 14q58 0 103.5 -17t77 -44.5t48 -63t16.5 -73.5q0 -65 -26.5 -109t-85.5 -69q61 -20 93 -57.5t32 -98.5q0 -63 -23.5 -108.5t-61.5 -76t-86 -44.5t-97 -14q-55 0 -99 10.5t-78.5 34.5t-60 63.5t-45.5 97.5z
M234 0l855 1398q24 39 55.5 61t77.5 22h107l-860 -1408q-27 -42 -57 -57.5t-69 -15.5h-109zM834 281l343 478h175v-470h96v-90q0 -13 -9 -23.5t-26 -10.5h-61v-165h-152v165h-296q-25 0 -38.5 10.5t-16.5 27.5zM1000 289h200v172q0 24 1.5 52.5t5.5 58.5z" />
    <glyph glyph-name="questiondown" unicode="&#xbf;" horiz-adv-x="861" 
d="M49 -17q0 78 22.5 132t57 92.5t75 65l76 50t62 47.5t31.5 57l23 148h173l18 -166q1 -5 1 -10v-10q0 -47 -22.5 -78.5t-56.5 -56.5t-73 -47t-72.5 -49t-56 -63.5t-22.5 -89.5q0 -37 13.5 -66t38 -50t58.5 -32.5t74 -11.5q58 0 98.5 13.5t69 29t47.5 28.5t36 13
q36 0 52 -31l68 -106q-36 -31 -77.5 -58t-89.5 -48t-104.5 -32.5t-122.5 -11.5q-89 0 -162 23.5t-125.5 67.5t-81 107t-28.5 143zM332 913q0 32 11.5 60.5t32.5 49t50 33t61 12.5t61 -12.5t49 -33t32.5 -49t12.5 -60.5q0 -33 -12.5 -61t-32.5 -48.5t-49 -32t-61 -11.5
q-33 0 -61.5 11.5t-49.5 32t-32.5 48.5t-11.5 61z" />
    <glyph glyph-name="Agrave" unicode="&#xc0;" horiz-adv-x="1454" 
d="M6 0l582 1481h281l582 -1481h-213q-36 0 -59 18t-33 44l-111 303h-613l-111 -303q-8 -24 -32 -43t-59 -19h-214zM301 1834h281q20 0 34.5 -1.5t26 -6t22 -13t22.5 -20.5l202 -207h-200q-14 0 -25 0.5t-20 3t-18.5 8t-20.5 13.5zM493 559h472l-181 493l-27 77.5t-29 96.5
q-14 -52 -28 -97.5t-27 -78.5z" />
    <glyph glyph-name="Aacute" unicode="&#xc1;" horiz-adv-x="1454" 
d="M6 0l582 1481h281l582 -1481h-213q-36 0 -59 18t-33 44l-111 303h-613l-111 -303q-8 -24 -32 -43t-59 -19h-214zM493 559h472l-181 493l-27 77.5t-29 96.5q-14 -52 -28 -97.5t-27 -78.5zM533 1586l201 207q12 12 23 20.5t22.5 13t25.5 6t35 1.5h281l-303 -221
q-11 -8 -21 -13.5t-19.5 -8.5t-20.5 -4t-25 -1h-199z" />
    <glyph glyph-name="Acircumflex" unicode="&#xc2;" horiz-adv-x="1454" 
d="M6 0l582 1481h281l582 -1481h-213q-36 0 -59 18t-33 44l-111 303h-613l-111 -303q-8 -24 -32 -43t-59 -19h-214zM354 1586l248 224h252l247 -224h-191q-15 0 -33.5 4t-30.5 13l-103 68q-4 2 -7.5 5t-7.5 6q-2 -2 -6.5 -5t-9.5 -6l-103 -68q-11 -8 -29.5 -12.5t-34.5 -4.5
h-191zM493 559h472l-181 493l-27 77.5t-29 96.5q-14 -52 -28 -97.5t-27 -78.5z" />
    <glyph glyph-name="Atilde" unicode="&#xc3;" horiz-adv-x="1454" 
d="M6 0l582 1481h281l582 -1481h-213q-36 0 -59 18t-33 44l-111 303h-613l-111 -303q-8 -24 -32 -43t-59 -19h-214zM415 1581q0 50 13.5 92.5t39 73.5t61.5 47.5t81 16.5q37 0 71.5 -11t66 -24.5l58 -24.5t48.5 -11q28 0 44.5 16t17.5 48h137q0 -51 -13 -93t-37.5 -71.5
t-60.5 -46.5t-82 -17q-37 0 -71.5 11t-65.5 24.5l-58 25t-49 11.5q-28 0 -44 -17t-17 -50h-140zM493 559h472l-181 493l-27 77.5t-29 96.5q-14 -52 -28 -97.5t-27 -78.5z" />
    <glyph glyph-name="Adieresis" unicode="&#xc4;" horiz-adv-x="1454" 
d="M6 0l582 1481h281l582 -1481h-213q-36 0 -59 18t-33 44l-111 303h-613l-111 -303q-8 -24 -32 -43t-59 -19h-214zM369 1707q0 28 11 53t29.5 44t42.5 30t50 11q29 0 54.5 -11t45 -30t31 -44t11.5 -53t-11.5 -52.5t-31 -43t-45 -28.5t-54.5 -10q-27 0 -50.5 10t-42 28.5
t-29.5 43t-11 52.5zM493 559h472l-181 493l-27 77.5t-29 96.5q-14 -52 -28 -97.5t-27 -78.5zM812 1707q0 28 10.5 53t29.5 44t44 30t53 11q29 0 54 -11t43.5 -30t29 -44t10.5 -53t-10.5 -52.5t-29 -43t-43.5 -28.5t-54 -10q-28 0 -53 10t-44 28.5t-29.5 43t-10.5 52.5z" />
    <glyph glyph-name="Aring" unicode="&#xc5;" horiz-adv-x="1454" 
d="M6 0l582 1481h281l582 -1481h-213q-36 0 -59 18t-33 44l-111 303h-613l-111 -303q-8 -24 -32 -43t-59 -19h-214zM493 559h472l-181 493l-27 77.5t-29 96.5q-14 -52 -28 -97.5t-27 -78.5zM517 1723q0 44 17.5 80t46 61.5t66.5 40t80 14.5q44 0 82.5 -14.5t68.5 -40
t47.5 -61.5t17.5 -80q0 -43 -17.5 -78t-47.5 -60.5t-68.5 -39.5t-82.5 -14q-42 0 -80 14t-66.5 39.5t-46 60.5t-17.5 78zM638 1723q0 -40 24 -65.5t69 -25.5q41 0 65.5 25.5t24.5 65.5q0 43 -24.5 68t-65.5 25q-45 0 -69 -25t-24 -68z" />
    <glyph glyph-name="AE" unicode="&#xc6;" horiz-adv-x="1912" 
d="M-29 0l753 1481h1099v-219h-711l51 -411h521v-212h-495l51 -419h583v-220h-816l-45 365h-533l-145 -304q-13 -28 -40 -44.5t-64 -16.5h-209zM523 559h415l-88 717q-16 -52 -34 -98t-36 -85z" />
    <glyph glyph-name="Ccedilla" unicode="&#xc7;" horiz-adv-x="1373" 
d="M63 740q0 167 55.5 306t156 239t240 156t308.5 56q165 0 288.5 -52.5t211.5 -139.5l-92 -128q-8 -12 -21 -21.5t-35 -9.5q-24 0 -48.5 18.5t-62.5 40t-96 40t-147 18.5q-104 0 -191.5 -36.5t-150.5 -104t-98.5 -164.5t-35.5 -218q0 -125 35.5 -222t96 -163.5t142 -102
t176.5 -35.5q56 0 101.5 6t84 19.5t72.5 34.5t68 52q10 9 21.5 14.5t24.5 5.5q23 0 39 -17l109 -118q-82 -102 -198.5 -160t-274.5 -68l-13 -42q91 -23 128 -61.5t37 -90.5q0 -34 -18 -61.5t-50.5 -47t-78.5 -30t-102 -10.5q-42 0 -78 6t-72 17l23 78q6 24 29 24
q7 0 15 -2.5l17.5 -5.5t21.5 -5t28 -2q34 0 51 13t17 31q0 30 -37 43t-114 23l38 126q-144 15 -259 77t-195 161t-123.5 229.5t-43.5 283.5z" />
    <glyph glyph-name="Egrave" unicode="&#xc8;" horiz-adv-x="1172" 
d="M150 0v1481h933v-219h-656v-411h517v-212h-517v-419h656v-220h-933zM205 1834h281q20 0 34.5 -1.5t26 -6t22 -13t22.5 -20.5l202 -207h-200q-14 0 -25 0.5t-20 3t-18.5 8t-20.5 13.5z" />
    <glyph glyph-name="Eacute" unicode="&#xc9;" horiz-adv-x="1172" 
d="M150 0v1481h933v-219h-656v-411h517v-212h-517v-419h656v-220h-933zM437 1586l201 207q12 12 23 20.5t22.5 13t25.5 6t35 1.5h281l-303 -221q-11 -8 -21 -13.5t-19.5 -8.5t-20.5 -4t-25 -1h-199z" />
    <glyph glyph-name="Ecircumflex" unicode="&#xca;" horiz-adv-x="1172" 
d="M150 0v1481h933v-219h-656v-411h517v-212h-517v-419h656v-220h-933zM258 1586l248 224h252l247 -224h-191q-15 0 -33.5 4t-30.5 13l-103 68q-4 2 -7.5 5t-7.5 6q-2 -2 -6.5 -5t-9.5 -6l-103 -68q-11 -8 -29.5 -12.5t-34.5 -4.5h-191z" />
    <glyph glyph-name="Edieresis" unicode="&#xcb;" horiz-adv-x="1172" 
d="M150 0v1481h933v-219h-656v-411h517v-212h-517v-419h656v-220h-933zM273 1707q0 28 11 53t29.5 44t42.5 30t50 11q29 0 54.5 -11t45 -30t31 -44t11.5 -53t-11.5 -52.5t-31 -43t-45 -28.5t-54.5 -10q-27 0 -50.5 10t-42 28.5t-29.5 43t-11 52.5zM716 1707q0 28 10.5 53
t29.5 44t44 30t53 11q29 0 54 -11t43.5 -30t29 -44t10.5 -53t-10.5 -52.5t-29 -43t-43.5 -28.5t-54 -10q-28 0 -53 10t-44 28.5t-29.5 43t-10.5 52.5z" />
    <glyph glyph-name="Igrave" unicode="&#xcc;" horiz-adv-x="643" 
d="M-100 1834h281q20 0 34.5 -1.5t26 -6t22 -13t22.5 -20.5l202 -207h-200q-14 0 -25 0.5t-20 3t-18.5 8t-20.5 13.5zM183 0v1481h277v-1481h-277z" />
    <glyph glyph-name="Iacute" unicode="&#xcd;" horiz-adv-x="643" 
d="M132 1586l201 207q12 12 23 20.5t22.5 13t25.5 6t35 1.5h281l-303 -221q-11 -8 -21 -13.5t-19.5 -8.5t-20.5 -4t-25 -1h-199zM183 0v1481h277v-1481h-277z" />
    <glyph glyph-name="Icircumflex" unicode="&#xce;" horiz-adv-x="643" 
d="M-48 1586l248 224h252l247 -224h-191q-15 0 -33.5 4t-30.5 13l-103 68q-4 2 -7.5 5t-7.5 6q-2 -2 -6.5 -5t-9.5 -6l-103 -68q-11 -8 -29.5 -12.5t-34.5 -4.5h-191zM183 0v1481h277v-1481h-277z" />
    <glyph glyph-name="Idieresis" unicode="&#xcf;" horiz-adv-x="643" 
d="M-33 1707q0 28 11 53t29.5 44t42.5 30t50 11q29 0 54.5 -11t45 -30t31 -44t11.5 -53t-11.5 -52.5t-31 -43t-45 -28.5t-54.5 -10q-27 0 -50.5 10t-42 28.5t-29.5 43t-11 52.5zM183 0v1481h277v-1481h-277zM410 1707q0 28 10.5 53t29.5 44t44 30t53 11q29 0 54 -11
t43.5 -30t29 -44t10.5 -53t-10.5 -52.5t-29 -43t-43.5 -28.5t-54 -10q-28 0 -53 10t-44 28.5t-29.5 43t-10.5 52.5z" />
    <glyph glyph-name="Eth" unicode="&#xd0;" horiz-adv-x="1618" 
d="M54 667v156h185v658h565q168 0 306 -55t236.5 -152.5t152.5 -234t54 -299.5t-54 -299t-152.5 -234t-236.5 -152.5t-306 -54.5h-565v667h-185zM516 219h288q109 0 195 36t146.5 103t93 163.5t32.5 218.5t-32.5 219t-93 164t-147 103t-194.5 36h-288v-439h370v-156h-370
v-448z" />
    <glyph glyph-name="Ntilde" unicode="&#xd1;" horiz-adv-x="1548" 
d="M150 0v1481h144q18 0 30.5 -1.5t22 -6.5t19 -13.5t20.5 -22.5l777 -991q-4 36 -5.5 70.5t-1.5 64.5v900h243v-1481h-143q-33 0 -54 10t-42 37l-774 986q3 -33 4.5 -65t1.5 -59v-909h-242zM478 1581q0 50 13.5 92.5t39 73.5t61.5 47.5t81 16.5q37 0 71.5 -11t66 -24.5
l58 -24.5t48.5 -11q28 0 44.5 16t17.5 48h137q0 -51 -13 -93t-37.5 -71.5t-60.5 -46.5t-82 -17q-37 0 -71.5 11t-65.5 24.5l-58 25t-49 11.5q-28 0 -44 -17t-17 -50h-140z" />
    <glyph glyph-name="Ograve" unicode="&#xd2;" horiz-adv-x="1637" 
d="M69 740q0 163 54 302t153 240t237.5 158t306.5 57t306.5 -57.5t236.5 -158t152.5 -239.5t54.5 -302t-54.5 -301.5t-152.5 -240t-236.5 -158t-306.5 -56.5t-306.5 56.5t-237.5 158t-153 240.5t-54 301zM350 740q0 -122 33 -218.5t94 -163.5t148 -103t195 -36
q109 0 195.5 36t147 103t92.5 163.5t32 218.5t-32 219t-92.5 164.5t-147 103.5t-195.5 36t-195.5 -36t-147.5 -103.5t-94 -164.5t-33 -219zM395 1834h281q20 0 34.5 -1.5t26 -6t22 -13t22.5 -20.5l202 -207h-200q-14 0 -25 0.5t-20 3t-18.5 8t-20.5 13.5z" />
    <glyph glyph-name="Oacute" unicode="&#xd3;" horiz-adv-x="1637" 
d="M69 740q0 163 54 302t153 240t237.5 158t306.5 57t306.5 -57.5t236.5 -158t152.5 -239.5t54.5 -302t-54.5 -301.5t-152.5 -240t-236.5 -158t-306.5 -56.5t-306.5 56.5t-237.5 158t-153 240.5t-54 301zM350 740q0 -122 33 -218.5t94 -163.5t148 -103t195 -36
q109 0 195.5 36t147 103t92.5 163.5t32 218.5t-32 219t-92.5 164.5t-147 103.5t-195.5 36t-195.5 -36t-147.5 -103.5t-94 -164.5t-33 -219zM627 1586l201 207q12 12 23 20.5t22.5 13t25.5 6t35 1.5h281l-303 -221q-11 -8 -21 -13.5t-19.5 -8.5t-20.5 -4t-25 -1h-199z" />
    <glyph glyph-name="Ocircumflex" unicode="&#xd4;" horiz-adv-x="1637" 
d="M69 740q0 163 54 302t153 240t237.5 158t306.5 57t306.5 -57.5t236.5 -158t152.5 -239.5t54.5 -302t-54.5 -301.5t-152.5 -240t-236.5 -158t-306.5 -56.5t-306.5 56.5t-237.5 158t-153 240.5t-54 301zM350 740q0 -122 33 -218.5t94 -163.5t148 -103t195 -36
q109 0 195.5 36t147 103t92.5 163.5t32 218.5t-32 219t-92.5 164.5t-147 103.5t-195.5 36t-195.5 -36t-147.5 -103.5t-94 -164.5t-33 -219zM449 1586l248 224h252l247 -224h-191q-15 0 -33.5 4t-30.5 13l-103 68q-4 2 -7.5 5t-7.5 6q-2 -2 -6.5 -5t-9.5 -6l-103 -68
q-11 -8 -29.5 -12.5t-34.5 -4.5h-191z" />
    <glyph glyph-name="Otilde" unicode="&#xd5;" horiz-adv-x="1637" 
d="M69 740q0 163 54 302t153 240t237.5 158t306.5 57t306.5 -57.5t236.5 -158t152.5 -239.5t54.5 -302t-54.5 -301.5t-152.5 -240t-236.5 -158t-306.5 -56.5t-306.5 56.5t-237.5 158t-153 240.5t-54 301zM350 740q0 -122 33 -218.5t94 -163.5t148 -103t195 -36
q109 0 195.5 36t147 103t92.5 163.5t32 218.5t-32 219t-92.5 164.5t-147 103.5t-195.5 36t-195.5 -36t-147.5 -103.5t-94 -164.5t-33 -219zM510 1581q0 50 13.5 92.5t39 73.5t61.5 47.5t81 16.5q37 0 71.5 -11t66 -24.5l58 -24.5t48.5 -11q28 0 44.5 16t17.5 48h137
q0 -51 -13 -93t-37.5 -71.5t-60.5 -46.5t-82 -17q-37 0 -71.5 11t-65.5 24.5l-58 25t-49 11.5q-28 0 -44 -17t-17 -50h-140z" />
    <glyph glyph-name="Odieresis" unicode="&#xd6;" horiz-adv-x="1637" 
d="M69 740q0 163 54 302t153 240t237.5 158t306.5 57t306.5 -57.5t236.5 -158t152.5 -239.5t54.5 -302t-54.5 -301.5t-152.5 -240t-236.5 -158t-306.5 -56.5t-306.5 56.5t-237.5 158t-153 240.5t-54 301zM350 740q0 -122 33 -218.5t94 -163.5t148 -103t195 -36
q109 0 195.5 36t147 103t92.5 163.5t32 218.5t-32 219t-92.5 164.5t-147 103.5t-195.5 36t-195.5 -36t-147.5 -103.5t-94 -164.5t-33 -219zM464 1707q0 28 11 53t29.5 44t42.5 30t50 11q29 0 54.5 -11t45 -30t31 -44t11.5 -53t-11.5 -52.5t-31 -43t-45 -28.5t-54.5 -10
q-27 0 -50.5 10t-42 28.5t-29.5 43t-11 52.5zM907 1707q0 28 10.5 53t29.5 44t44 30t53 11q29 0 54 -11t43.5 -30t29 -44t10.5 -53t-10.5 -52.5t-29 -43t-43.5 -28.5t-54 -10q-28 0 -53 10t-44 28.5t-29.5 43t-10.5 52.5z" />
    <glyph glyph-name="multiply" unicode="&#xd7;" 
d="M109 337l350 350l-335 335l133 133l335 -335l332 333l134 -133l-333 -333l349 -348l-134 -132l-348 347l-349 -349z" />
    <glyph glyph-name="Oslash" unicode="&#xd8;" horiz-adv-x="1637" 
d="M69 740q0 163 54 302t153 240t237.5 158t306.5 57q113 0 211.5 -25.5t182.5 -74.5l61 84q13 18 24.5 31.5t24 21t28 11t38.5 3.5h141l-183 -252q106 -102 164 -244t58 -312q0 -163 -54.5 -301.5t-152.5 -240t-236.5 -158t-306.5 -56.5q-103 0 -194 21.5t-171 62.5
l-78 -108q-30 -41 -71.5 -57.5t-80.5 -16.5h-108l199 275q-118 102 -182.5 250.5t-64.5 328.5zM350 740q0 -118 30 -211t87 -160l603 829q-106 65 -250 65q-109 0 -195.5 -36t-147.5 -103.5t-94 -164.5t-33 -219zM599 266q97 -47 221 -47q109 0 195.5 36t147 103t92.5 163.5
t32 218.5q0 105 -24 191.5t-70 151.5z" />
    <glyph glyph-name="Ugrave" unicode="&#xd9;" horiz-adv-x="1490" 
d="M132 594v887h276v-886q0 -85 23 -153.5t66 -117.5t105.5 -75.5t142.5 -26.5t143 26.5t106.5 75t66.5 117t23 153.5v887h276v-887q0 -132 -42.5 -244t-122.5 -193.5t-193.5 -127t-256.5 -45.5q-142 0 -255.5 45.5t-193 127t-122 193.5t-42.5 244zM319 1834h281
q20 0 34.5 -1.5t26 -6t22 -13t22.5 -20.5l202 -207h-200q-14 0 -25 0.5t-20 3t-18.5 8t-20.5 13.5z" />
    <glyph glyph-name="Uacute" unicode="&#xda;" horiz-adv-x="1490" 
d="M132 594v887h276v-886q0 -85 23 -153.5t66 -117.5t105.5 -75.5t142.5 -26.5t143 26.5t106.5 75t66.5 117t23 153.5v887h276v-887q0 -132 -42.5 -244t-122.5 -193.5t-193.5 -127t-256.5 -45.5q-142 0 -255.5 45.5t-193 127t-122 193.5t-42.5 244zM551 1586l201 207
q12 12 23 20.5t22.5 13t25.5 6t35 1.5h281l-303 -221q-11 -8 -21 -13.5t-19.5 -8.5t-20.5 -4t-25 -1h-199z" />
    <glyph glyph-name="Ucircumflex" unicode="&#xdb;" horiz-adv-x="1490" 
d="M132 594v887h276v-886q0 -85 23 -153.5t66 -117.5t105.5 -75.5t142.5 -26.5t143 26.5t106.5 75t66.5 117t23 153.5v887h276v-887q0 -132 -42.5 -244t-122.5 -193.5t-193.5 -127t-256.5 -45.5q-142 0 -255.5 45.5t-193 127t-122 193.5t-42.5 244zM372 1586l248 224h252
l247 -224h-191q-15 0 -33.5 4t-30.5 13l-103 68q-4 2 -7.5 5t-7.5 6q-2 -2 -6.5 -5t-9.5 -6l-103 -68q-11 -8 -29.5 -12.5t-34.5 -4.5h-191z" />
    <glyph glyph-name="Udieresis" unicode="&#xdc;" horiz-adv-x="1490" 
d="M132 594v887h276v-886q0 -85 23 -153.5t66 -117.5t105.5 -75.5t142.5 -26.5t143 26.5t106.5 75t66.5 117t23 153.5v887h276v-887q0 -132 -42.5 -244t-122.5 -193.5t-193.5 -127t-256.5 -45.5q-142 0 -255.5 45.5t-193 127t-122 193.5t-42.5 244zM387 1707q0 28 11 53
t29.5 44t42.5 30t50 11q29 0 54.5 -11t45 -30t31 -44t11.5 -53t-11.5 -52.5t-31 -43t-45 -28.5t-54.5 -10q-27 0 -50.5 10t-42 28.5t-29.5 43t-11 52.5zM830 1707q0 28 10.5 53t29.5 44t44 30t53 11q29 0 54 -11t43.5 -30t29 -44t10.5 -53t-10.5 -52.5t-29 -43t-43.5 -28.5
t-54 -10q-28 0 -53 10t-44 28.5t-29.5 43t-10.5 52.5z" />
    <glyph glyph-name="Yacute" unicode="&#xdd;" horiz-adv-x="1340" 
d="M-7 1481h243q36 0 56.5 -17.5t35.5 -44.5l271 -494q24 -44 41 -83.5l32 -77.5q13 39 30 78.5t40 82.5l270 494q11 23 33.5 42.5t57.5 19.5h244l-539 -906v-575h-276v575zM478 1586l201 207q12 12 23 20.5t22.5 13t25.5 6t35 1.5h281l-303 -221q-11 -8 -21 -13.5
t-19.5 -8.5t-20.5 -4t-25 -1h-199z" />
    <glyph glyph-name="Thorn" unicode="&#xde;" horiz-adv-x="1280" 
d="M159 0v1481h275v-254h207q148 0 257 -35t179.5 -97.5t104 -149.5t33.5 -190q0 -108 -35.5 -197.5t-107.5 -154t-179.5 -100.5t-251.5 -36h-207v-267h-275zM434 482h207q76 0 132 19t93 54.5t55.5 86t18.5 113.5q0 59 -18.5 107t-55.5 82t-93 52t-132 18h-207v-532z" />
    <glyph glyph-name="germandbls" unicode="&#xdf;" horiz-adv-x="1300" 
d="M180 0v1008q0 109 37.5 199.5t106.5 157.5t168.5 104t224.5 37q120 0 205 -34.5t138 -87t77.5 -113t24.5 -112.5q0 -59 -20 -101t-50 -74t-65 -55.5l-65 -45t-50 -44.5t-20 -53q0 -34 25.5 -58.5t63.5 -48l83 -50t83 -65t63.5 -92.5t25.5 -133q0 -87 -32.5 -153
t-87.5 -111t-128.5 -68t-154.5 -23q-47 0 -93.5 9.5t-89 27t-80.5 41t-68 51.5l59 96q10 17 25.5 26.5t39.5 9.5t45 -13.5l46.5 -29t58.5 -28.5t79 -13q65 0 104.5 38.5t39.5 99.5q0 48 -27.5 80t-69 57t-89.5 49t-89.5 56t-69 78.5t-27.5 116.5q0 58 21.5 100.5t53.5 75
t70 58.5t70 54t54 59.5t22 74.5q0 34 -12 64t-37.5 52t-66 35.5t-96.5 13.5q-134 0 -203.5 -82.5t-69.5 -241.5v-999h-253z" />
    <glyph glyph-name="agrave" unicode="&#xe0;" horiz-adv-x="1072" 
d="M83 268q0 59 31 117t104 105t193.5 77.5t300.5 34.5v62q0 105 -44.5 155.5t-129.5 50.5q-61 0 -102.5 -14t-71.5 -32l-55.5 -32.5t-56.5 -14.5q-26 0 -44.5 13.5t-29.5 32.5l-46 81q181 166 437 166q92 0 164.5 -30t122.5 -84t76 -128.5t26 -163.5v-664h-113
q-36 0 -56.5 11t-30.5 43l-23 75q-40 -36 -78.5 -63t-79 -45.5t-87 -27.5t-102.5 -9q-67 0 -123 17.5t-96.5 53.5t-63 89.5t-22.5 123.5zM231 1497h237q42 0 61.5 -14t35.5 -40l146 -249h-144q-29 0 -47 7.5t-36 28.5zM325 282q0 -67 39.5 -95.5t102.5 -28.5q39 0 71.5 7
t62 21.5t56.5 35.5t55 49v178q-111 -5 -185 -19t-119.5 -35.5t-64 -50.5t-18.5 -62z" />
    <glyph glyph-name="aacute" unicode="&#xe1;" horiz-adv-x="1072" 
d="M83 268q0 59 31 117t104 105t193.5 77.5t300.5 34.5v62q0 105 -44.5 155.5t-129.5 50.5q-61 0 -102.5 -14t-71.5 -32l-55.5 -32.5t-56.5 -14.5q-26 0 -44.5 13.5t-29.5 32.5l-46 81q181 166 437 166q92 0 164.5 -30t122.5 -84t76 -128.5t26 -163.5v-664h-113
q-36 0 -56.5 11t-30.5 43l-23 75q-40 -36 -78.5 -63t-79 -45.5t-87 -27.5t-102.5 -9q-67 0 -123 17.5t-96.5 53.5t-63 89.5t-22.5 123.5zM325 282q0 -67 39.5 -95.5t102.5 -28.5q39 0 71.5 7t62 21.5t56.5 35.5t55 49v178q-111 -5 -185 -19t-119.5 -35.5t-64 -50.5
t-18.5 -62zM425 1194l145 249q15 27 35.5 40.5t61.5 13.5h246l-253 -267q-19 -20 -37 -28t-47 -8h-151z" />
    <glyph glyph-name="acircumflex" unicode="&#xe2;" horiz-adv-x="1072" 
d="M83 268q0 59 31 117t104 105t193.5 77.5t300.5 34.5v62q0 105 -44.5 155.5t-129.5 50.5q-61 0 -102.5 -14t-71.5 -32l-55.5 -32.5t-56.5 -14.5q-26 0 -44.5 13.5t-29.5 32.5l-46 81q181 166 437 166q92 0 164.5 -30t122.5 -84t76 -128.5t26 -163.5v-664h-113
q-36 0 -56.5 11t-30.5 43l-23 75q-40 -36 -78.5 -63t-79 -45.5t-87 -27.5t-102.5 -9q-67 0 -123 17.5t-96.5 53.5t-63 89.5t-22.5 123.5zM205 1196l235 285h237l235 -285h-169q-32 0 -51 18l-108 98l-10.5 10t-10.5 12q-5 -7 -11 -12t-11 -10l-109 -98q-8 -7 -22 -12.5
t-30 -5.5h-175zM325 282q0 -67 39.5 -95.5t102.5 -28.5q39 0 71.5 7t62 21.5t56.5 35.5t55 49v178q-111 -5 -185 -19t-119.5 -35.5t-64 -50.5t-18.5 -62z" />
    <glyph glyph-name="atilde" unicode="&#xe3;" horiz-adv-x="1072" 
d="M83 268q0 59 31 117t104 105t193.5 77.5t300.5 34.5v62q0 105 -44.5 155.5t-129.5 50.5q-61 0 -102.5 -14t-71.5 -32l-55.5 -32.5t-56.5 -14.5q-26 0 -44.5 13.5t-29.5 32.5l-46 81q181 166 437 166q92 0 164.5 -30t122.5 -84t76 -128.5t26 -163.5v-664h-113
q-36 0 -56.5 11t-30.5 43l-23 75q-40 -36 -78.5 -63t-79 -45.5t-87 -27.5t-102.5 -9q-67 0 -123 17.5t-96.5 53.5t-63 89.5t-22.5 123.5zM233 1222q0 57 16 103.5t44.5 80t67 52t83.5 18.5q37 0 69 -13.5t60 -29l51.5 -28.5t43.5 -13q31 0 48.5 16.5t17.5 60.5h153
q0 -57 -15.5 -103.5t-43.5 -80t-66 -51t-85 -17.5q-37 0 -68.5 13t-59 28.5l-51.5 28.5t-45 13q-30 0 -46.5 -17.5t-16.5 -60.5h-157zM325 282q0 -67 39.5 -95.5t102.5 -28.5q39 0 71.5 7t62 21.5t56.5 35.5t55 49v178q-111 -5 -185 -19t-119.5 -35.5t-64 -50.5t-18.5 -62z
" />
    <glyph glyph-name="adieresis" unicode="&#xe4;" horiz-adv-x="1072" 
d="M83 268q0 59 31 117t104 105t193.5 77.5t300.5 34.5v62q0 105 -44.5 155.5t-129.5 50.5q-61 0 -102.5 -14t-71.5 -32l-55.5 -32.5t-56.5 -14.5q-26 0 -44.5 13.5t-29.5 32.5l-46 81q181 166 437 166q92 0 164.5 -30t122.5 -84t76 -128.5t26 -163.5v-664h-113
q-36 0 -56.5 11t-30.5 43l-23 75q-40 -36 -78.5 -63t-79 -45.5t-87 -27.5t-102.5 -9q-67 0 -123 17.5t-96.5 53.5t-63 89.5t-22.5 123.5zM226 1323q0 30 11 56t30.5 45.5t44.5 30.5t53 11q29 0 55 -11t46 -30.5t31 -45.5t11 -56q0 -29 -11 -54t-31 -43.5t-46 -29t-55 -10.5
q-28 0 -53 10.5t-44.5 29t-30.5 43.5t-11 54zM325 282q0 -67 39.5 -95.5t102.5 -28.5q39 0 71.5 7t62 21.5t56.5 35.5t55 49v178q-111 -5 -185 -19t-119.5 -35.5t-64 -50.5t-18.5 -62zM609 1323q0 30 11 56t30 45.5t44.5 30.5t54.5 11t55 -11t45.5 -30.5t30.5 -45.5t11 -56
q0 -29 -11 -54t-30.5 -43.5t-45.5 -29t-55 -10.5t-54.5 10.5t-44.5 29t-30 43.5t-11 54z" />
    <glyph glyph-name="aring" unicode="&#xe5;" horiz-adv-x="1072" 
d="M83 268q0 59 31 117t104 105t193.5 77.5t300.5 34.5v62q0 105 -44.5 155.5t-129.5 50.5q-61 0 -102.5 -14t-71.5 -32l-55.5 -32.5t-56.5 -14.5q-26 0 -44.5 13.5t-29.5 32.5l-46 81q181 166 437 166q92 0 164.5 -30t122.5 -84t76 -128.5t26 -163.5v-664h-113
q-36 0 -56.5 11t-30.5 43l-23 75q-40 -36 -78.5 -63t-79 -45.5t-87 -27.5t-102.5 -9q-67 0 -123 17.5t-96.5 53.5t-63 89.5t-22.5 123.5zM325 282q0 -67 39.5 -95.5t102.5 -28.5q39 0 71.5 7t62 21.5t56.5 35.5t55 49v178q-111 -5 -185 -19t-119.5 -35.5t-64 -50.5
t-18.5 -62zM331 1357q0 47 18.5 86t50 66.5t72.5 43t86 15.5q46 0 88 -15.5t73.5 -43t50.5 -66.5t19 -86q0 -46 -19 -84t-50.5 -65t-73.5 -42t-88 -15q-45 0 -86 15t-72.5 42t-50 65t-18.5 84zM469 1357q0 -39 24 -65t69 -26q41 0 65.5 26t24.5 65q0 43 -24.5 68t-65.5 25
q-45 0 -69 -25t-24 -68z" />
    <glyph glyph-name="ae" unicode="&#xe6;" horiz-adv-x="1690" 
d="M83 282q0 59 31 119t104 109t193.5 81.5t300.5 36.5v36q0 105 -44.5 159.5t-129.5 54.5q-61 0 -102.5 -16t-71.5 -34.5l-55.5 -34.5t-56.5 -16q-26 0 -44.5 13.5t-29.5 32.5l-46 81q91 83 190 124.5t220 41.5q119 0 194.5 -45t115.5 -124q58 77 145 121.5t205 44.5
q89 0 166 -34.5t132.5 -99t87.5 -156.5t32 -207q0 -29 -2.5 -47.5t-8.5 -29.5t-17 -15.5t-28 -4.5h-613q14 -151 85.5 -222t184.5 -71q70 0 113 13.5t72 30t48.5 29.5t40.5 13q18 0 30.5 -6t20.5 -17l68 -86q-42 -49 -92.5 -82.5t-105 -53.5t-111 -28t-109.5 -8
q-112 0 -208.5 50t-159.5 156q-31 -55 -75.5 -94t-99 -64.5t-116 -37t-123.5 -11.5q-77 0 -138 19.5t-104 56.5t-66 93t-23 129zM325 294q0 -71 39.5 -103.5t109.5 -32.5q50 0 93.5 15t75.5 47.5t50.5 83.5t18.5 122v47q-111 -5 -185 -21t-119.5 -39.5t-64 -54t-18.5 -64.5z
M952 626h444q0 50 -12.5 97t-37.5 83.5t-64 58t-91 21.5q-108 0 -166.5 -68t-72.5 -192z" />
    <glyph glyph-name="ccedilla" unicode="&#xe7;" horiz-adv-x="976" 
d="M65 527q0 116 33 215t97.5 171t160 113t218.5 41q118 0 206.5 -38t159.5 -108l-67 -93q-11 -14 -21.5 -22t-31.5 -8q-19 0 -37.5 11.5l-44 26.5t-61 26.5t-87.5 11.5q-67 0 -117 -24t-83.5 -69t-49.5 -109t-16 -145q0 -84 17.5 -149.5t51.5 -110t82 -67.5t109 -23
q60 0 97.5 15t63 33l44.5 32.5t42 14.5q28 0 47 -23l72 -92q-71 -83 -159 -121.5t-182 -46.5l-12 -45q91 -23 128 -61.5t37 -90.5q0 -34 -18 -61.5t-51 -47t-79 -30t-101 -10.5q-42 0 -78.5 6t-72.5 17l24 78q6 24 29 24q7 0 14.5 -2.5t17.5 -5.5t21.5 -5t28.5 -2
q34 0 50.5 13t16.5 31q0 30 -37 43t-113 23l39 129q-82 14 -153.5 56.5t-123.5 110.5t-81.5 161t-29.5 207z" />
    <glyph glyph-name="egrave" unicode="&#xe8;" horiz-adv-x="1094" 
d="M65 548q0 108 34.5 202.5t99.5 164.5t158.5 111t211.5 41q99 0 183 -31.5t144 -92.5t94 -149.5t34 -202.5q0 -29 -2.5 -48t-9 -29.5t-18 -15t-28.5 -4.5h-650q11 -162 87 -238t201 -76q61 0 106 14.5t78 32l58 31.5t49 14q15 0 26.5 -6t19.5 -17l74 -92
q-42 -49 -94.5 -82.5t-109 -53.5t-115.5 -28t-114 -8q-110 0 -204 36t-164 107.5t-109.5 176.5t-39.5 243zM248 1497h237q42 0 61.5 -14t35.5 -40l146 -249h-144q-29 0 -47 7.5t-36 28.5zM322 646h475q0 49 -13.5 92.5t-41 76.5t-70 52t-98.5 19q-111 0 -173 -62.5
t-79 -177.5z" />
    <glyph glyph-name="eacute" unicode="&#xe9;" horiz-adv-x="1094" 
d="M65 548q0 108 34.5 202.5t99.5 164.5t158.5 111t211.5 41q99 0 183 -31.5t144 -92.5t94 -149.5t34 -202.5q0 -29 -2.5 -48t-9 -29.5t-18 -15t-28.5 -4.5h-650q11 -162 87 -238t201 -76q61 0 106 14.5t78 32l58 31.5t49 14q15 0 26.5 -6t19.5 -17l74 -92
q-42 -49 -94.5 -82.5t-109 -53.5t-115.5 -28t-114 -8q-110 0 -204 36t-164 107.5t-109.5 176.5t-39.5 243zM322 646h475q0 49 -13.5 92.5t-41 76.5t-70 52t-98.5 19q-111 0 -173 -62.5t-79 -177.5zM442 1194l145 249q15 27 35.5 40.5t61.5 13.5h246l-253 -267
q-19 -20 -37 -28t-47 -8h-151z" />
    <glyph glyph-name="ecircumflex" unicode="&#xea;" horiz-adv-x="1094" 
d="M65 548q0 108 34.5 202.5t99.5 164.5t158.5 111t211.5 41q99 0 183 -31.5t144 -92.5t94 -149.5t34 -202.5q0 -29 -2.5 -48t-9 -29.5t-18 -15t-28.5 -4.5h-650q11 -162 87 -238t201 -76q61 0 106 14.5t78 32l58 31.5t49 14q15 0 26.5 -6t19.5 -17l74 -92
q-42 -49 -94.5 -82.5t-109 -53.5t-115.5 -28t-114 -8q-110 0 -204 36t-164 107.5t-109.5 176.5t-39.5 243zM222 1196l235 285h237l235 -285h-169q-32 0 -51 18l-108 98l-10.5 10t-10.5 12q-5 -7 -11 -12t-11 -10l-109 -98q-8 -7 -22 -12.5t-30 -5.5h-175zM322 646h475
q0 49 -13.5 92.5t-41 76.5t-70 52t-98.5 19q-111 0 -173 -62.5t-79 -177.5z" />
    <glyph glyph-name="edieresis" unicode="&#xeb;" horiz-adv-x="1094" 
d="M65 548q0 108 34.5 202.5t99.5 164.5t158.5 111t211.5 41q99 0 183 -31.5t144 -92.5t94 -149.5t34 -202.5q0 -29 -2.5 -48t-9 -29.5t-18 -15t-28.5 -4.5h-650q11 -162 87 -238t201 -76q61 0 106 14.5t78 32l58 31.5t49 14q15 0 26.5 -6t19.5 -17l74 -92
q-42 -49 -94.5 -82.5t-109 -53.5t-115.5 -28t-114 -8q-110 0 -204 36t-164 107.5t-109.5 176.5t-39.5 243zM243 1323q0 30 11 56t30.5 45.5t44.5 30.5t53 11q29 0 55 -11t46 -30.5t31 -45.5t11 -56q0 -29 -11 -54t-31 -43.5t-46 -29t-55 -10.5q-28 0 -53 10.5t-44.5 29
t-30.5 43.5t-11 54zM322 646h475q0 49 -13.5 92.5t-41 76.5t-70 52t-98.5 19q-111 0 -173 -62.5t-79 -177.5zM626 1323q0 30 11 56t30 45.5t44.5 30.5t54.5 11t55 -11t45.5 -30.5t30.5 -45.5t11 -56q0 -29 -11 -54t-30.5 -43.5t-45.5 -29t-55 -10.5t-54.5 10.5t-44.5 29
t-30 43.5t-11 54z" />
    <glyph glyph-name="igrave" unicode="&#xec;" horiz-adv-x="555" 
d="M-42 1497h237q42 0 61.5 -14t35.5 -40l146 -249h-144q-29 0 -47 7.5t-36 28.5zM152 0v1051h252v-1051h-252z" />
    <glyph glyph-name="iacute" unicode="&#xed;" horiz-adv-x="555" 
d="M152 0v1051h252v-1051h-252zM152 1194l145 249q15 27 35.5 40.5t61.5 13.5h246l-253 -267q-19 -20 -37 -28t-47 -8h-151z" />
    <glyph glyph-name="icircumflex" unicode="&#xee;" horiz-adv-x="555" 
d="M-68 1196l235 285h237l235 -285h-169q-32 0 -51 18l-108 98l-10.5 10t-10.5 12q-5 -7 -11 -12t-11 -10l-109 -98q-8 -7 -22 -12.5t-30 -5.5h-175zM152 0v1051h252v-1051h-252z" />
    <glyph glyph-name="idieresis" unicode="&#xef;" horiz-adv-x="555" 
d="M-47 1323q0 30 11 56t30.5 45.5t44.5 30.5t53 11q29 0 55 -11t46 -30.5t31 -45.5t11 -56q0 -29 -11 -54t-31 -43.5t-46 -29t-55 -10.5q-28 0 -53 10.5t-44.5 29t-30.5 43.5t-11 54zM152 0v1051h252v-1051h-252zM336 1323q0 30 11 56t30 45.5t44.5 30.5t54.5 11t55 -11
t45.5 -30.5t30.5 -45.5t11 -56q0 -29 -11 -54t-30.5 -43.5t-45.5 -29t-55 -10.5t-54.5 10.5t-44.5 29t-30 43.5t-11 54z" />
    <glyph glyph-name="eth" unicode="&#xf0;" horiz-adv-x="1163" 
d="M68 485q0 94 33 179.5t94 149.5t147 101.5t193 37.5q97 0 178 -35t143 -103q-22 109 -73 187t-138 137l-203 -131l-47 79q-10 16 -10 34q0 31 33 49l77 44q-33 13 -69.5 24.5l-76.5 23.5q-26 7 -42.5 25.5t-16.5 48.5q0 16 8 43l30 87q103 -17 199 -49t181 -82l180 117
l50 -82q10 -17 10 -32q0 -14 -7.5 -26.5t-21.5 -20.5l-83 -47q58 -52 105 -116t81 -141t52 -168t18 -196q0 -151 -34.5 -269t-101 -200.5t-165 -125.5t-225.5 -43q-106 0 -197 34t-158 98.5t-105 157.5t-38 210zM318 483q0 -75 20 -131.5t54.5 -95.5t80.5 -59t99 -20
q59 0 109.5 21.5t87.5 69t59 123.5t25 184q-15 38 -39 72t-57 59t-75.5 40t-95.5 15q-66 0 -115.5 -21.5t-83.5 -59.5t-51.5 -88t-17.5 -109z" />
    <glyph glyph-name="ntilde" unicode="&#xf1;" horiz-adv-x="1164" 
d="M135 0v1051h155q49 0 64 -46l18 -83q32 33 67 59.5t74.5 46t84.5 29.5t98 10q86 0 152.5 -29t111.5 -82t68 -126t23 -161v-669h-253v669q0 96 -44.5 148.5t-133.5 52.5q-66 0 -123.5 -29.5t-108.5 -80.5v-760h-253zM266 1222q0 57 16 103.5t44.5 80t67 52t83.5 18.5
q37 0 69 -13.5t60 -29l51.5 -28.5t43.5 -13q31 0 48.5 16.5t17.5 60.5h153q0 -57 -15.5 -103.5t-43.5 -80t-66 -51t-85 -17.5q-37 0 -68.5 13t-59 28.5l-51.5 28.5t-45 13q-30 0 -46.5 -17.5t-16.5 -60.5h-157z" />
    <glyph glyph-name="ograve" unicode="&#xf2;" horiz-adv-x="1164" 
d="M62 527q0 124 37.5 224.5t105.5 170t164.5 107.5t214.5 38t213.5 -38t163 -107.5t104.5 -170t37 -224.5q0 -125 -37 -225t-104.5 -171t-163.5 -108.5t-213 -37.5q-118 0 -214.5 37.5t-164.5 108.5t-105.5 171t-37.5 225zM257 1497h237q42 0 61.5 -14t35.5 -40l146 -249
h-144q-29 0 -47 7.5t-36 28.5zM324 525q0 -169 63.5 -257.5t196.5 -88.5q131 0 194 88t63 258t-63 259t-194 89q-133 0 -196.5 -89.5t-63.5 -258.5z" />
    <glyph glyph-name="oacute" unicode="&#xf3;" horiz-adv-x="1164" 
d="M62 527q0 124 37.5 224.5t105.5 170t164.5 107.5t214.5 38t213.5 -38t163 -107.5t104.5 -170t37 -224.5q0 -125 -37 -225t-104.5 -171t-163.5 -108.5t-213 -37.5q-118 0 -214.5 37.5t-164.5 108.5t-105.5 171t-37.5 225zM324 525q0 -169 63.5 -257.5t196.5 -88.5
q131 0 194 88t63 258t-63 259t-194 89q-133 0 -196.5 -89.5t-63.5 -258.5zM451 1194l145 249q15 27 35.5 40.5t61.5 13.5h246l-253 -267q-19 -20 -37 -28t-47 -8h-151z" />
    <glyph glyph-name="ocircumflex" unicode="&#xf4;" horiz-adv-x="1164" 
d="M62 527q0 124 37.5 224.5t105.5 170t164.5 107.5t214.5 38t213.5 -38t163 -107.5t104.5 -170t37 -224.5q0 -125 -37 -225t-104.5 -171t-163.5 -108.5t-213 -37.5q-118 0 -214.5 37.5t-164.5 108.5t-105.5 171t-37.5 225zM231 1196l235 285h237l235 -285h-169
q-32 0 -51 18l-108 98l-10.5 10t-10.5 12q-5 -7 -11 -12t-11 -10l-109 -98q-8 -7 -22 -12.5t-30 -5.5h-175zM324 525q0 -169 63.5 -257.5t196.5 -88.5q131 0 194 88t63 258t-63 259t-194 89q-133 0 -196.5 -89.5t-63.5 -258.5z" />
    <glyph glyph-name="otilde" unicode="&#xf5;" horiz-adv-x="1164" 
d="M62 527q0 124 37.5 224.5t105.5 170t164.5 107.5t214.5 38t213.5 -38t163 -107.5t104.5 -170t37 -224.5q0 -125 -37 -225t-104.5 -171t-163.5 -108.5t-213 -37.5q-118 0 -214.5 37.5t-164.5 108.5t-105.5 171t-37.5 225zM259 1222q0 57 16 103.5t44.5 80t67 52t83.5 18.5
q37 0 69 -13.5t60 -29l51.5 -28.5t43.5 -13q31 0 48.5 16.5t17.5 60.5h153q0 -57 -15.5 -103.5t-43.5 -80t-66 -51t-85 -17.5q-37 0 -68.5 13t-59 28.5l-51.5 28.5t-45 13q-30 0 -46.5 -17.5t-16.5 -60.5h-157zM324 525q0 -169 63.5 -257.5t196.5 -88.5q131 0 194 88t63 258
t-63 259t-194 89q-133 0 -196.5 -89.5t-63.5 -258.5z" />
    <glyph glyph-name="odieresis" unicode="&#xf6;" horiz-adv-x="1164" 
d="M62 527q0 124 37.5 224.5t105.5 170t164.5 107.5t214.5 38t213.5 -38t163 -107.5t104.5 -170t37 -224.5q0 -125 -37 -225t-104.5 -171t-163.5 -108.5t-213 -37.5q-118 0 -214.5 37.5t-164.5 108.5t-105.5 171t-37.5 225zM252 1323q0 30 11 56t30.5 45.5t44.5 30.5t53 11
q29 0 55 -11t46 -30.5t31 -45.5t11 -56q0 -29 -11 -54t-31 -43.5t-46 -29t-55 -10.5q-28 0 -53 10.5t-44.5 29t-30.5 43.5t-11 54zM324 525q0 -169 63.5 -257.5t196.5 -88.5q131 0 194 88t63 258t-63 259t-194 89q-133 0 -196.5 -89.5t-63.5 -258.5zM635 1323q0 30 11 56
t30 45.5t44.5 30.5t54.5 11t55 -11t45.5 -30.5t30.5 -45.5t11 -56q0 -29 -11 -54t-30.5 -43.5t-45.5 -29t-55 -10.5t-54.5 10.5t-44.5 29t-30 43.5t-11 54z" />
    <glyph glyph-name="divide" unicode="&#xf7;" 
d="M93 594v187h1000v-187h-1000zM437 323q0 32 12 60.5t32.5 49t49 32.5t61.5 12q32 0 60.5 -12t49.5 -32.5t33.5 -49.5t12.5 -60q0 -33 -12.5 -61.5t-33.5 -48.5t-49.5 -32t-60.5 -12q-33 0 -61.5 12t-49 32t-32.5 48.5t-12 61.5zM437 1052q0 32 12 60.5t32.5 49t49 32.5
t61.5 12q32 0 60.5 -12t49.5 -32.5t33.5 -49.5t12.5 -60q0 -33 -12.5 -61t-33.5 -48.5t-49.5 -32.5t-60.5 -12q-33 0 -61.5 12t-49 32.5t-32.5 48.5t-12 61z" />
    <glyph glyph-name="oslash" unicode="&#xf8;" horiz-adv-x="1164" 
d="M44 -79l158 214q-68 71 -104 169.5t-36 222.5t37.5 224.5t105.5 170t164.5 107.5t214.5 38q74 0 139 -15.5t121 -43.5l57 76q13 18 24.5 31t24.5 21.5t28 12t38 3.5h125l-175 -238q66 -71 101 -168t35 -219q0 -125 -37 -225t-104.5 -171t-163.5 -108.5t-213 -37.5
q-74 0 -139 14.5t-121 43.5l-35 -48q-30 -40 -71.5 -57t-80.5 -17h-93zM307 525q0 -122 33 -201l385 522q-57 35 -141 35q-134 0 -205.5 -93t-71.5 -263zM442 204q57 -33 142 -33q131 0 202 92t71 262q0 60 -8 109.5t-24 88.5z" />
    <glyph glyph-name="ugrave" unicode="&#xf9;" horiz-adv-x="1164" 
d="M114 383v668h253v-668q0 -96 44.5 -149t133.5 -53q66 0 123 29.5t108 80.5v760h253v-1051h-155q-49 0 -64 46l-17 84q-33 -33 -68 -60t-74.5 -46t-85 -29.5t-97.5 -10.5q-86 0 -152 29t-111 82t-68 126.5t-23 161.5zM252 1497h237q42 0 61.5 -14t35.5 -40l146 -249h-144
q-29 0 -47 7.5t-36 28.5z" />
    <glyph glyph-name="uacute" unicode="&#xfa;" horiz-adv-x="1164" 
d="M114 383v668h253v-668q0 -96 44.5 -149t133.5 -53q66 0 123 29.5t108 80.5v760h253v-1051h-155q-49 0 -64 46l-17 84q-33 -33 -68 -60t-74.5 -46t-85 -29.5t-97.5 -10.5q-86 0 -152 29t-111 82t-68 126.5t-23 161.5zM446 1194l145 249q15 27 35.5 40.5t61.5 13.5h246
l-253 -267q-19 -20 -37 -28t-47 -8h-151z" />
    <glyph glyph-name="ucircumflex" unicode="&#xfb;" horiz-adv-x="1164" 
d="M114 383v668h253v-668q0 -96 44.5 -149t133.5 -53q66 0 123 29.5t108 80.5v760h253v-1051h-155q-49 0 -64 46l-17 84q-33 -33 -68 -60t-74.5 -46t-85 -29.5t-97.5 -10.5q-86 0 -152 29t-111 82t-68 126.5t-23 161.5zM226 1196l235 285h237l235 -285h-169q-32 0 -51 18
l-108 98l-10.5 10t-10.5 12q-5 -7 -11 -12t-11 -10l-109 -98q-8 -7 -22 -12.5t-30 -5.5h-175z" />
    <glyph glyph-name="udieresis" unicode="&#xfc;" horiz-adv-x="1164" 
d="M114 383v668h253v-668q0 -96 44.5 -149t133.5 -53q66 0 123 29.5t108 80.5v760h253v-1051h-155q-49 0 -64 46l-17 84q-33 -33 -68 -60t-74.5 -46t-85 -29.5t-97.5 -10.5q-86 0 -152 29t-111 82t-68 126.5t-23 161.5zM247 1323q0 30 11 56t30.5 45.5t44.5 30.5t53 11
q29 0 55 -11t46 -30.5t31 -45.5t11 -56q0 -29 -11 -54t-31 -43.5t-46 -29t-55 -10.5q-28 0 -53 10.5t-44.5 29t-30.5 43.5t-11 54zM630 1323q0 30 11 56t30 45.5t44.5 30.5t54.5 11t55 -11t45.5 -30.5t30.5 -45.5t11 -56q0 -29 -11 -54t-30.5 -43.5t-45.5 -29t-55 -10.5
t-54.5 10.5t-44.5 29t-30 43.5t-11 54z" />
    <glyph glyph-name="yacute" unicode="&#xfd;" horiz-adv-x="1092" 
d="M7 1051h221q31 0 47.5 -14.5t24.5 -32.5l224 -545q11 -27 19.5 -55.5t14.5 -57.5q8 30 18 57.5l21 56.5l211 544q8 20 27 33.5t43 13.5h202l-572 -1340q-11 -27 -29 -40.5t-55 -13.5h-188l196 421zM433 1194l145 249q15 27 35.5 40.5t61.5 13.5h246l-253 -267
q-19 -20 -37 -28t-47 -8h-151z" />
    <glyph glyph-name="thorn" unicode="&#xfe;" horiz-adv-x="1158" 
d="M135 -343v1865h253v-600q62 67 141 106t185 39q86 0 157 -35.5t123 -103t80 -166.5t28 -228q0 -118 -32 -218.5t-90.5 -174t-142 -115t-187.5 -41.5q-45 0 -83 8t-69.5 24t-58 38t-51.5 49v-447h-253zM388 272q43 -53 93.5 -74t109.5 -21q57 0 103.5 21.5t79 65.5t50 111
t17.5 159t-15 156t-42.5 104t-67 58t-89.5 18q-79 0 -135 -33t-104 -94v-471z" />
    <glyph glyph-name="ydieresis" unicode="&#xff;" horiz-adv-x="1092" 
d="M7 1051h221q31 0 47.5 -14.5t24.5 -32.5l224 -545q11 -27 19.5 -55.5t14.5 -57.5q8 30 18 57.5l21 56.5l211 544q8 20 27 33.5t43 13.5h202l-572 -1340q-11 -27 -29 -40.5t-55 -13.5h-188l196 421zM234 1323q0 30 11 56t30.5 45.5t44.5 30.5t53 11q29 0 55 -11t46 -30.5
t31 -45.5t11 -56q0 -29 -11 -54t-31 -43.5t-46 -29t-55 -10.5q-28 0 -53 10.5t-44.5 29t-30.5 43.5t-11 54zM617 1323q0 30 11 56t30 45.5t44.5 30.5t54.5 11t55 -11t45.5 -30.5t30.5 -45.5t11 -56q0 -29 -11 -54t-30.5 -43.5t-45.5 -29t-55 -10.5t-54.5 10.5t-44.5 29
t-30 43.5t-11 54z" />
    <glyph glyph-name="OE" unicode="&#x152;" horiz-adv-x="2214" 
d="M69 740q0 163 48.5 302t137.5 240t213.5 158t275.5 57q148 0 269.5 -54t210.5 -152v190h901v-219h-657v-411h519v-212h-519v-419h657v-220h-901v189q-89 -96 -209.5 -150t-270.5 -54q-152 0 -276 56.5t-213 157.5t-137.5 240t-48.5 301zM350 740q0 -122 29.5 -219.5
t83.5 -166t133 -105.5t177 -37q97 0 175 37t132.5 105.5t83 166t28.5 219.5t-28.5 220t-83 167t-132.5 106t-175 37q-98 0 -177 -37t-133 -106t-83.5 -167t-29.5 -220z" />
    <glyph glyph-name="oe" unicode="&#x153;" horiz-adv-x="1790" 
d="M62 527q0 124 36 224.5t100 170t153.5 107.5t197.5 38q127 0 222.5 -52.5t156.5 -150.5q56 92 150.5 147.5t224.5 55.5q89 0 165.5 -34.5t132.5 -99t87.5 -156.5t31.5 -207q0 -29 -2.5 -47.5t-8.5 -29.5t-17 -15.5t-28 -4.5h-612q14 -151 85 -222t184 -71q57 0 98 14.5
t72.5 32l56 31.5t47.5 14q27 0 45 -23l74 -92q-42 -49 -92 -82.5t-105 -53.5t-111 -28t-110 -8q-111 0 -207.5 49.5t-158.5 155.5q-61 -99 -160 -152t-230 -53q-104 0 -192 37.5t-151.5 108.5t-99 171t-35.5 225zM324 525q0 -170 57.5 -258t181.5 -88q121 0 179.5 88
t58.5 258t-58.5 259t-179.5 89q-123 0 -181 -89.5t-58 -258.5zM1053 626h443q0 50 -12.5 97t-37.5 83.5t-64 58t-91 21.5q-108 0 -166.5 -68t-71.5 -192z" />
    <glyph glyph-name="Ydieresis" unicode="&#x178;" horiz-adv-x="1340" 
d="M-7 1481h243q36 0 56.5 -17.5t35.5 -44.5l271 -494q24 -44 41 -83.5l32 -77.5q13 39 30 78.5t40 82.5l270 494q11 23 33.5 42.5t57.5 19.5h244l-539 -906v-575h-276v575zM314 1707q0 28 11 53t29.5 44t42.5 30t50 11q29 0 54.5 -11t45 -30t31 -44t11.5 -53t-11.5 -52.5
t-31 -43t-45 -28.5t-54.5 -10q-27 0 -50.5 10t-42 28.5t-29.5 43t-11 52.5zM757 1707q0 28 10.5 53t29.5 44t44 30t53 11q29 0 54 -11t43.5 -30t29 -44t10.5 -53t-10.5 -52.5t-29 -43t-43.5 -28.5t-54 -10q-28 0 -53 10t-44 28.5t-29.5 43t-10.5 52.5z" />
    <glyph glyph-name="circumflex" unicode="&#x2c6;" horiz-adv-x="653" 
d="M-27 1196l235 285h237l235 -285h-169q-32 0 -51 18l-108 98l-10.5 10t-10.5 12q-5 -7 -11 -12t-11 -10l-109 -98q-8 -7 -22 -12.5t-30 -5.5h-175z" />
    <glyph glyph-name="tilde" unicode="&#x2dc;" horiz-adv-x="653" 
d="M1 1222q0 57 16 103.5t44.5 80t67 52t83.5 18.5q37 0 69 -13.5t60 -29l51.5 -28.5t43.5 -13q31 0 48.5 16.5t17.5 60.5h153q0 -57 -15.5 -103.5t-43.5 -80t-66 -51t-85 -17.5q-37 0 -68.5 13t-59 28.5l-51.5 28.5t-45 13q-30 0 -46.5 -17.5t-16.5 -60.5h-157z" />
    <glyph glyph-name="uni2000" unicode="&#x2000;" horiz-adv-x="959" 
 />
    <glyph glyph-name="uni2001" unicode="&#x2001;" horiz-adv-x="1919" 
 />
    <glyph glyph-name="uni2002" unicode="&#x2002;" horiz-adv-x="959" 
 />
    <glyph glyph-name="uni2003" unicode="&#x2003;" horiz-adv-x="1919" 
 />
    <glyph glyph-name="uni2004" unicode="&#x2004;" horiz-adv-x="639" 
 />
    <glyph glyph-name="uni2005" unicode="&#x2005;" horiz-adv-x="479" 
 />
    <glyph glyph-name="uni2006" unicode="&#x2006;" horiz-adv-x="319" 
 />
    <glyph glyph-name="uni2007" unicode="&#x2007;" horiz-adv-x="319" 
 />
    <glyph glyph-name="uni2008" unicode="&#x2008;" horiz-adv-x="239" 
 />
    <glyph glyph-name="uni2009" unicode="&#x2009;" horiz-adv-x="383" 
 />
    <glyph glyph-name="uni200A" unicode="&#x200a;" horiz-adv-x="106" 
 />
    <glyph glyph-name="uni2010" unicode="&#x2010;" horiz-adv-x="735" 
d="M102 513v211h531v-211h-531z" />
    <glyph glyph-name="uni2011" unicode="&#x2011;" horiz-adv-x="735" 
d="M102 513v211h531v-211h-531z" />
    <glyph glyph-name="figuredash" unicode="&#x2012;" horiz-adv-x="735" 
d="M102 513v211h531v-211h-531z" />
    <glyph glyph-name="endash" unicode="&#x2013;" horiz-adv-x="1164" 
d="M167 524v179h830v-179h-830z" />
    <glyph glyph-name="emdash" unicode="&#x2014;" horiz-adv-x="1724" 
d="M167 524v179h1389v-179h-1389z" />
    <glyph glyph-name="quoteleft" unicode="&#x2018;" horiz-adv-x="460" 
d="M100 1230q0 102 52 196t150 171l79 -48q10 -6 14 -14.5t4 -16.5q0 -9 -4 -17.5t-9 -14.5q-13 -15 -28 -35.5t-27.5 -45t-20.5 -53t-8 -61.5q0 -35 11.5 -74t37.5 -82q9 -14 9 -29q0 -33 -36 -46l-154 -60q-70 114 -70 230z" />
    <glyph glyph-name="quoteright" unicode="&#x2019;" horiz-adv-x="460" 
d="M88 1052q0 19 13 32q13 15 28 35.5t27.5 44.5t20 52.5t7.5 61.5q0 35 -11 74.5t-38 83.5q-9 13 -9 27q0 33 38 46l152 60q36 -57 53 -114.5t17 -115.5q0 -102 -51.5 -195t-149.5 -172l-79 48q-10 6 -14 14.5t-4 17.5z" />
    <glyph glyph-name="quotesinglbase" unicode="&#x201a;" horiz-adv-x="460" 
d="M88 -219q0 19 13 33q13 15 28 35t27.5 44t20 52.5t7.5 61.5q0 35 -11 74.5t-38 83.5q-9 13 -9 28q0 33 38 46l152 59q36 -57 53 -114.5t17 -114.5q0 -102 -51.5 -195.5t-149.5 -172.5l-79 48q-10 6 -14 15t-4 17z" />
    <glyph glyph-name="quotedblleft" unicode="&#x201c;" horiz-adv-x="800" 
d="M100 1230q0 102 52 196t150 171l79 -48q10 -6 14 -14.5t4 -16.5q0 -9 -4 -17.5t-9 -14.5q-13 -15 -28 -35.5t-27.5 -45t-20.5 -53t-8 -61.5q0 -35 11.5 -74t37.5 -82q9 -14 9 -29q0 -33 -36 -46l-154 -60q-70 114 -70 230zM440 1230q0 102 52 196t150 171l79 -48
q10 -6 14 -14.5t4 -16.5q0 -9 -4 -17.5t-9 -14.5q-13 -15 -28 -35.5t-27.5 -45t-20.5 -53t-8 -61.5q0 -35 11.5 -74t37.5 -82q9 -14 9 -29q0 -33 -36 -46l-154 -60q-70 114 -70 230z" />
    <glyph glyph-name="quotedblright" unicode="&#x201d;" horiz-adv-x="800" 
d="M88 1052q0 19 13 32q13 15 28 35t27.5 44.5t20 53t7.5 61.5q0 35 -11 74.5t-38 83.5q-9 13 -9 27q0 33 38 46l152 60q36 -57 53 -114.5t17 -115.5q0 -102 -51.5 -195t-149.5 -172l-79 48q-10 6 -14 14.5t-4 17.5zM428 1052q0 19 13 32q13 15 28 35t27.5 44.5t20 53
t7.5 61.5q0 35 -11 74.5t-38 83.5q-9 13 -9 27q0 33 38 46l152 60q36 -57 53 -114.5t17 -115.5q0 -102 -51.5 -195t-149.5 -172l-79 48q-10 6 -14 14.5t-4 17.5z" />
    <glyph glyph-name="quotedblbase" unicode="&#x201e;" horiz-adv-x="800" 
d="M88 -219q0 19 13 33q13 15 28 34.5t27.5 44t20 53t7.5 61.5q0 35 -11 74.5t-38 83.5q-9 13 -9 28q0 33 38 46l152 59q36 -57 53 -114.5t17 -114.5q0 -102 -51.5 -195.5t-149.5 -172.5l-79 48q-10 6 -14 15t-4 17zM428 -219q0 19 13 33q13 15 28 34.5t27.5 44t20 53
t7.5 61.5q0 35 -11 74.5t-38 83.5q-9 13 -9 28q0 33 38 46l152 59q36 -57 53 -114.5t17 -114.5q0 -102 -51.5 -195.5t-149.5 -172.5l-79 48q-10 6 -14 15t-4 17z" />
    <glyph glyph-name="bullet" unicode="&#x2022;" 
d="M146 607q0 92 35.5 173t96 142t141.5 96t173 35t174 -35t142.5 -96t95.5 -142t35 -173q0 -91 -35 -171.5t-95.5 -141t-142.5 -95t-174 -34.5t-173 34.5t-141.5 95t-96 141t-35.5 171.5z" />
    <glyph glyph-name="ellipsis" unicode="&#x2026;" horiz-adv-x="1553" 
d="M75 139q0 32 11.5 60.5t32.5 49t50 33t61 12.5t60.5 -12.5t49 -33t33 -49t12.5 -60.5q0 -33 -12.5 -61t-33 -48.5t-49 -32t-60.5 -11.5q-33 0 -61.5 11.5t-49.5 32t-32.5 48.5t-11.5 61zM622 139q0 32 11.5 60.5t32.5 49t49.5 33t61.5 12.5q32 0 60.5 -12.5t49 -33
t33 -49t12.5 -60.5q0 -33 -12.5 -61t-33 -48.5t-49 -32t-60.5 -11.5q-33 0 -61.5 11.5t-49.5 32t-32.5 48.5t-11.5 61zM1168 139q0 32 12 60.5t33 49t49.5 33t61.5 12.5q32 0 60.5 -12.5t49 -33t33 -49t12.5 -60.5q0 -33 -12.5 -61t-33 -48.5t-49 -32t-60.5 -11.5
q-33 0 -61.5 11.5t-49.5 32t-33 48.5t-12 61z" />
    <glyph glyph-name="uni202F" unicode="&#x202f;" horiz-adv-x="383" 
 />
    <glyph glyph-name="guilsinglleft" unicode="&#x2039;" horiz-adv-x="657" 
d="M126 535v32l262 406l83 -39q20 -9 29.5 -23.5t9.5 -31.5q0 -22 -13 -44l-142 -241q-14 -27 -32 -43q16 -14 32 -43l142 -242q13 -23 13 -44q0 -36 -39 -54l-83 -39z" />
    <glyph glyph-name="guilsinglright" unicode="&#x203a;" horiz-adv-x="657" 
d="M147 223q0 20 14 43l141 242q16 29 33 43q-18 16 -33 43l-141 241q-13 23 -14 44q0 37 39 55l83 39l262 -406v-32l-262 -406l-83 39q-20 9 -29.5 23.5t-9.5 31.5z" />
    <glyph glyph-name="uni205F" unicode="&#x205f;" horiz-adv-x="479" 
 />
    <glyph glyph-name="Euro" unicode="&#x20ac;" 
d="M38 552v140h119q-1 11 -1 23.5v24.5v34.5t1 34.5h-119v141h136q24 125 75 226t124.5 171.5t167 109t202.5 38.5q142 0 244 -55t170 -148l-89 -96q-10 -11 -21.5 -20t-31.5 -9q-14 0 -26 8.5t-26.5 20.5l-32 26.5t-41.5 27t-56.5 20.5t-77.5 8q-121 0 -204 -83t-116 -245
h514v-78q0 -24 -19 -43.5t-51 -19.5h-461q-1 -17 -1 -34v-35v-24.5t1 -23.5h434v-77q0 -24 -19 -43.5t-51 -19.5h-352q29 -176 110.5 -262.5t201.5 -86.5q74 0 118.5 20t73 44.5t47 44.5t41.5 20q11 0 20 -3.5t17 -14.5l109 -100q-72 -111 -182 -169.5t-257 -58.5
q-120 0 -215.5 40.5t-166.5 114t-116 178t-63 233.5h-130z" />
    <glyph glyph-name="trademark" unicode="&#x2122;" horiz-adv-x="1486" 
d="M58 1337v144h510v-144h-168v-474h-175v474h-167zM642 863v618h151q23 0 34.5 -3t21.5 -24l134 -261q8 -18 15 -36t12 -37q6 18 13 37t16 36l137 261q10 19 22 23t34 4h150v-618h-153v309l11 102l-157 -309q-19 -38 -59 -38h-25q-42 0 -60 38l-155 304l12 -97v-309h-154z
" />
    <glyph glyph-name="uniE000" unicode="&#xe000;" horiz-adv-x="1049" 
d="M0 0v1050h1050v-1050h-1050z" />
  </font>
</defs></svg>
